{
  "bounds": [800, 600],
  "children": [
    {
      "bounds": [800, 600],
      "contentsOpaque": true,
      "drawsContent": true,
      "children": [
        {
          "shouldFlattenTransform": false,
          "children": [
            {
              "position": [8, 8],
              "bounds": [200, 200],
              "contentsOpaque": true,
              "drawsContent": true,
              "backgroundColor": "#D3D3D3"
            },
            {
              "position": [50, 50],
              "bounds": [200, 200],
              "drawsContent": true,
              "paintInvalidations": [
                {
                  "object": "LayoutBlockFlow (positioned) DIV id='target'",
                  "rect": [0, 0, 200, 200],
                  "reason": "subtree"
                }
              ]
            }
          ]
        },
        {
          "position": [50, 50],
          "bounds": [200, 200],
          "contentsOpaque": true,
          "drawsContent": true,
          "backgroundColor": "#ADD8E6",
          "paintInvalidations": [
            {
              "object": "LayoutBlockFlow (positioned) DIV id='target'",
              "rect": [0, 0, 200, 200],
              "reason": "subtree"
            }
          ]
        }
      ]
    }
  ]
}

