{
  "bounds": [808, 816],
  "children": [
    {
      "bounds": [808, 816],
      "contentsOpaque": true,
      "drawsContent": true,
      "children": [
        {
          "shouldFlattenTransform": false,
          "children": [
            {
              "position": [8, 8],
              "bounds": [800, 800],
              "contentsOpaque": true,
              "drawsContent": true,
              "backgroundColor": "#D3D3D3"
            },
            {
              "position": [8, 0],
              "bounds": [592, 600],
              "drawsContent": true,
              "paintInvalidations": [
                {
                  "object": "LayoutBlockFlow DIV id='imgElement'",
                  "rect": [392, 400, 200, 200],
                  "reason": "style change"
                }
              ]
            }
          ]
        }
      ]
    }
  ]
}

