{
  "bounds": [800, 600],
  "children": [
    {
      "bounds": [800, 600],
      "contentsOpaque": true,
      "drawsContent": true,
      "paintInvalidations": [
        {
          "object": "LayoutSVGPath polygon id='polygon'",
          "rect": [265, 219, 162, 105],
          "reason": "full"
        },
        {
          "object": "LayoutSVGRoot svg",
          "rect": [265, 219, 162, 105],
          "reason": "bounds change"
        },
        {
          "object": "LayoutSVGPath polygon id='polygon'",
          "rect": [265, 209, 162, 105],
          "reason": "full"
        },
        {
          "object": "LayoutSVGRoot svg",
          "rect": [265, 209, 162, 105],
          "reason": "bounds change"
        }
      ]
    }
  ]
}

