{
  "bounds": [800, 600],
  "children": [
    {
      "bounds": [800, 600],
      "contentsOpaque": true,
      "drawsContent": true,
      "paintInvalidations": [
        {
          "object": "LayoutSVGRect rect",
          "rect": [0, 0, 800, 300],
          "reason": "style change"
        },
        {
          "object": "LayoutSVGRect rect",
          "rect": [0, 100, 800, 100],
          "reason": "style change"
        }
      ]
    }
  ]
}

