{
  "bounds": [800, 600],
  "children": [
    {
      "bounds": [800, 600],
      "contentsOpaque": true,
      "drawsContent": true,
      "paintInvalidations": [
        {
          "object": "LayoutSVGImage image",
          "rect": [8, 8, 200, 200],
          "reason": "full"
        },
        {
          "object": "LayoutSVGRoot svg",
          "rect": [108, 8, 100, 200],
          "reason": "incremental"
        }
      ]
    }
  ]
}

