CONSOLE MESSAGE: line 30: debug
{
  "bounds": [800, 600],
  "children": [
    {
      "bounds": [800, 600],
      "contentsOpaque": true,
      "drawsContent": true,
      "paintInvalidations": [
        {
          "object": "LayoutBlockFlow (positioned) DIV class='fixed'",
          "rect": [50, 50, 75, 75],
          "reason": "bounds change"
        }
      ],
      "children": [
        {
          "position": [200, 100],
          "bounds": [100, 100],
          "contentsOpaque": true,
          "drawsContent": true,
          "backgroundColor": "#0000FF",
          "paintInvalidations": [
            {
              "object": "LayoutBlockFlow (positioned) DIV id='container'",
              "rect": [0, 0, 100, 100],
              "reason": "became visible"
            },
            {
              "object": "LayoutBlockFlow (positioned) DIV id='container'",
              "rect": [0, 0, 100, 100],
              "reason": "subtree"
            },
            {
              "object": "LayoutBlockFlow (positioned) DIV class='fixed'",
              "rect": [50, 50, 75, 75],
              "reason": "subtree"
            },
            {
              "object": "LayoutBlockFlow (positioned) DIV class='fixed'",
              "reason": "subtree"
            }
          ]
        }
      ]
    }
  ]
}

