{
  "bounds": [800, 600],
  "children": [
    {
      "bounds": [800, 600],
      "contentsOpaque": true,
      "drawsContent": true,
      "paintInvalidations": [
        {
          "object": "LayoutBlockFlow DIV id='div'",
          "rect": [345, 210, 13, 19],
          "reason": "invalidate paint rectangle"
        },
        {
          "object": "LayoutBlockFlow DIV id='div'",
          "rect": [41, 35, 13, 18],
          "reason": "invalidate paint rectangle"
        }
      ]
    }
  ]
}

