{
  "bounds": [800, 600],
  "children": [
    {
      "bounds": [800, 600],
      "contentsOpaque": true,
      "drawsContent": true,
      "paintInvalidations": [
        {
          "object": "LayoutBlockFlow (anonymous)",
          "rect": [9, 83, 198, 16],
          "reason": "invalidate paint rectangle"
        },
        {
          "object": "LayoutBlockFlow (anonymous)",
          "rect": [16, 113, 184, 16],
          "reason": "invalidate paint rectangle"
        },
        {
          "object": "LayoutText #text",
          "rect": [76, 113, 64, 16],
          "reason": "full"
        },
        {
          "object": "LayoutText (anonymous)",
          "rect": [9, 83, 63, 16],
          "reason": "full"
        },
        {
          "object": "InlineTextBox ''",
          "reason": "full"
        },
        {
          "object": "InlineTextBox ''",
          "reason": "full"
        },
        {
          "object": "InlineTextBox 'SUCCESS'",
          "reason": "full"
        },
        {
          "object": "InlineTextBox 'SUCCESS'",
          "reason": "full"
        },
        {
          "object": "RootInlineBox",
          "reason": "full"
        },
        {
          "object": "RootInlineBox",
          "reason": "full"
        }
      ]
    }
  ]
}

