{
  "bounds": [800, 600],
  "children": [
    {
      "bounds": [800, 600],
      "contentsOpaque": true,
      "drawsContent": true,
      "paintInvalidations": [
        {
          "object": "LayoutBlockFlow P",
          "rect": [8, 80, 418, 395],
          "reason": "invalidate paint rectangle"
        },
        {
          "object": "LayoutText #text",
          "rect": [14, 404, 355, 71],
          "reason": "bounds change"
        },
        {
          "object": "LayoutText #text",
          "rect": [14, 368, 355, 54],
          "reason": "bounds change"
        },
        {
          "object": "LayoutText #text",
          "rect": [14, 404, 355, 36],
          "reason": "bounds change"
        },
        {
          "object": "LayoutText #text",
          "rect": [14, 368, 336, 18],
          "reason": "bounds change"
        },
        {
          "object": "LayoutText #text",
          "rect": [65, 368, 304, 18],
          "reason": "bounds change"
        },
        {
          "object": "LayoutText #text",
          "rect": [178, 350, 146, 18],
          "reason": "bounds change"
        },
        {
          "object": "LayoutText #text",
          "rect": [127, 350, 145, 18],
          "reason": "bounds change"
        },
        {
          "object": "LayoutBlockFlow (floating) SPAN id='blueFloat'",
          "rect": [14, 353, 48, 65],
          "reason": "layoutObject removal"
        },
        {
          "object": "InlineTextBox ' twist itself round and look up in her face, with\n'",
          "reason": "full"
        },
        {
          "object": "InlineTextBox ' was in a furious passion, and went\n'",
          "reason": "full"
        },
        {
          "object": "InlineTextBox ' was in a'",
          "reason": "bounds change"
        },
        {
          "object": "InlineTextBox 'Queen'",
          "reason": "full"
        },
        {
          "object": "InlineTextBox 'The chief difficulty Alice found at first was in'",
          "reason": "full"
        },
        {
          "object": "InlineTextBox 'The players all played at once without waiting\n'",
          "reason": "bounds change"
        },
        {
          "object": "InlineTextBox 'The players all played at once without waiting'",
          "reason": "full"
        },
        {
          "object": "InlineTextBox 'a very short time '",
          "reason": "full"
        },
        {
          "object": "InlineTextBox 'a very short time '",
          "reason": "bounds change"
        },
        {
          "object": "InlineTextBox 'about once in a minute.\n'",
          "reason": "bounds change"
        },
        {
          "object": "InlineTextBox 'about, and shouting \u2018Off with his head!\u2019 or \u2018Off with'",
          "reason": "full"
        },
        {
          "object": "InlineTextBox 'arm, with its legs hanging down,\n'",
          "reason": "full"
        },
        {
          "object": "InlineTextBox 'begin again, it was very provoking to find that the hedgehog'",
          "reason": "full"
        },
        {
          "object": "InlineTextBox 'besides all\n'",
          "reason": "full"
        },
        {
          "object": "InlineTextBox 'body tucked away,\n'",
          "reason": "full"
        },
        {
          "object": "InlineTextBox 'but generally, just as'",
          "reason": "full"
        },
        {
          "object": "InlineTextBox 'comfortably enough, under her'",
          "reason": "full"
        },
        {
          "object": "InlineTextBox 'difficult game indeed.\n'",
          "reason": "full"
        },
        {
          "object": "InlineTextBox 'difficult game indeed.\n'",
          "reason": "bounds change"
        },
        {
          "object": "InlineTextBox 'doubled-up\n'",
          "reason": "full"
        },
        {
          "object": "InlineTextBox 'flamingo: she succeeded in getting its'",
          "reason": "full"
        },
        {
          "object": "InlineTextBox 'for the hedgehogs; and in\n'",
          "reason": "full"
        },
        {
          "object": "InlineTextBox 'for turns,\n'",
          "reason": "full"
        },
        {
          "object": "InlineTextBox 'for'",
          "reason": "bounds change"
        },
        {
          "object": "InlineTextBox 'furious passion, and went\n'",
          "reason": "bounds change"
        },
        {
          "object": "InlineTextBox 'going to give the hedgehog a blow with its head, it'",
          "reason": "full"
        },
        {
          "object": "InlineTextBox 'had\n'",
          "reason": "full"
        },
        {
          "object": "InlineTextBox 'hedgehogs; and in\n'",
          "reason": "bounds change"
        },
        {
          "object": "InlineTextBox 'her head!\u2019 about once in a minute.\n'",
          "reason": "full"
        },
        {
          "object": "InlineTextBox 'her head!\u2019'",
          "reason": "bounds change"
        },
        {
          "object": "InlineTextBox 'laughing: and when she had got its head down, and was going'",
          "reason": "full"
        },
        {
          "object": "InlineTextBox 'managing her\n'",
          "reason": "full"
        },
        {
          "object": "InlineTextBox 'other parts of\n'",
          "reason": "full"
        },
        {
          "object": "InlineTextBox 'out, and was'",
          "reason": "full"
        },
        {
          "object": "InlineTextBox 'puzzled expression that she could not help bursting out'",
          "reason": "full"
        },
        {
          "object": "InlineTextBox 'quarrelling all the while, and fighting for the'",
          "reason": "bounds change"
        },
        {
          "object": "InlineTextBox 'quarrelling all the while, and fighting'",
          "reason": "full"
        },
        {
          "object": "InlineTextBox 'she had got its neck nicely straightened\n'",
          "reason": "full"
        },
        {
          "object": "InlineTextBox 'she wanted to send the hedgehog to, and, as the'",
          "reason": "full"
        },
        {
          "object": "InlineTextBox 'shouting \u2018Off with his head!\u2019 or \u2018Off with\n'",
          "reason": "bounds change"
        },
        {
          "object": "InlineTextBox 'soldiers were always getting up and walking off to'",
          "reason": "full"
        },
        {
          "object": "InlineTextBox 'stamping about, and'",
          "reason": "bounds change"
        },
        {
          "object": "InlineTextBox 'stamping'",
          "reason": "full"
        },
        {
          "object": "InlineTextBox 'such a'",
          "reason": "full"
        },
        {
          "object": "InlineTextBox 'that it was a very\n'",
          "reason": "full"
        },
        {
          "object": "InlineTextBox 'the Queen'",
          "reason": "bounds change"
        },
        {
          "object": "InlineTextBox 'the ground, Alice soon came to the conclusion'",
          "reason": "full"
        },
        {
          "object": "InlineTextBox 'the'",
          "reason": "full"
        },
        {
          "object": "InlineTextBox 'this, there was generally a ridge or furrow in the'",
          "reason": "full"
        },
        {
          "object": "InlineTextBox 'to\n'",
          "reason": "full"
        },
        {
          "object": "InlineTextBox 'turns,\n'",
          "reason": "bounds change"
        },
        {
          "object": "InlineTextBox 'unrolled itself, and was in the act of crawling away:'",
          "reason": "full"
        },
        {
          "object": "InlineTextBox 'way wherever\n'",
          "reason": "full"
        },
        {
          "object": "InlineTextBox 'would'",
          "reason": "full"
        },
        {
          "object": "RootInlineBox",
          "reason": "full"
        },
        {
          "object": "RootInlineBox",
          "reason": "full"
        },
        {
          "object": "RootInlineBox",
          "reason": "full"
        },
        {
          "object": "RootInlineBox",
          "reason": "full"
        },
        {
          "object": "RootInlineBox",
          "reason": "full"
        },
        {
          "object": "RootInlineBox",
          "reason": "full"
        },
        {
          "object": "RootInlineBox",
          "reason": "full"
        },
        {
          "object": "RootInlineBox",
          "reason": "full"
        },
        {
          "object": "RootInlineBox",
          "reason": "full"
        },
        {
          "object": "RootInlineBox",
          "reason": "full"
        },
        {
          "object": "RootInlineBox",
          "reason": "full"
        },
        {
          "object": "RootInlineBox",
          "reason": "full"
        },
        {
          "object": "RootInlineBox",
          "reason": "full"
        },
        {
          "object": "RootInlineBox",
          "reason": "full"
        },
        {
          "object": "RootInlineBox",
          "reason": "full"
        },
        {
          "object": "RootInlineBox",
          "reason": "full"
        },
        {
          "object": "RootInlineBox",
          "reason": "full"
        },
        {
          "object": "RootInlineBox",
          "reason": "full"
        },
        {
          "object": "RootInlineBox",
          "reason": "full"
        },
        {
          "object": "RootInlineBox",
          "reason": "full"
        },
        {
          "object": "RootInlineBox",
          "reason": "full"
        },
        {
          "object": "RootInlineBox",
          "reason": "full"
        }
      ]
    }
  ]
}

