{
  "bounds": [200, 300],
  "children": [
    {
      "bounds": [200, 300],
      "contentsOpaque": true,
      "drawsContent": true,
      "paintInvalidations": [
        {
          "object": "LayoutView #document",
          "rect": [0, 0, 200, 300],
          "reason": "full"
        },
        {
          "object": "LayoutView #document",
          "rect": [0, 200, 200, 100],
          "reason": "incremental"
        },
        {
          "object": "LayoutBlockFlow HTML",
          "rect": [148, 0, 52, 200],
          "reason": "forced by layout"
        },
        {
          "object": "LayoutBlockFlow BODY",
          "rect": [156, 8, 36, 184],
          "reason": "forced by layout"
        },
        {
          "object": "LayoutText #text",
          "rect": [157, 8, 35, 147],
          "reason": "bounds change"
        },
        {
          "object": "LayoutBlockFlow HTML",
          "rect": [166, 0, 34, 300],
          "reason": "forced by layout"
        },
        {
          "object": "LayoutBlockFlow BODY",
          "rect": [174, 8, 18, 284],
          "reason": "forced by layout"
        },
        {
          "object": "LayoutText #text",
          "rect": [175, 8, 17, 248],
          "reason": "bounds change"
        },
        {
          "object": "InlineTextBox 'AAAA AAAA AAAA AAAA AAAA'",
          "reason": "bounds change"
        },
        {
          "object": "InlineTextBox 'AAAA AAAA AAAA'",
          "reason": "full"
        },
        {
          "object": "InlineTextBox 'AAAA AAAA'",
          "reason": "full"
        },
        {
          "object": "RootInlineBox",
          "reason": "full"
        },
        {
          "object": "RootInlineBox",
          "reason": "full"
        },
        {
          "object": "RootInlineBox",
          "reason": "full"
        }
      ]
    }
  ]
}
{
  "bounds": [300, 300],
  "children": [
    {
      "bounds": [300, 300],
      "contentsOpaque": true,
      "drawsContent": true,
      "paintInvalidations": [
        {
          "object": "LayoutView #document",
          "rect": [0, 0, 300, 300],
          "reason": "full"
        },
        {
          "object": "LayoutView #document",
          "rect": [200, 0, 100, 300],
          "reason": "incremental"
        },
        {
          "object": "LayoutBlockFlow HTML",
          "rect": [266, 0, 34, 300],
          "reason": "forced by layout"
        },
        {
          "object": "LayoutBlockFlow HTML",
          "rect": [166, 0, 34, 300],
          "reason": "forced by layout"
        },
        {
          "object": "LayoutBlockFlow BODY",
          "rect": [274, 8, 18, 284],
          "reason": "bounds change"
        },
        {
          "object": "LayoutBlockFlow BODY",
          "rect": [174, 8, 18, 284],
          "reason": "bounds change"
        },
        {
          "object": "LayoutText #text",
          "rect": [275, 8, 17, 248],
          "reason": "bounds change"
        },
        {
          "object": "LayoutText #text",
          "rect": [175, 8, 17, 248],
          "reason": "bounds change"
        },
        {
          "object": "InlineTextBox 'AAAA AAAA AAAA AAAA AAAA'",
          "reason": "bounds change"
        },
        {
          "object": "RootInlineBox",
          "reason": "full"
        }
      ]
    }
  ]
}
{
  "bounds": [300, 250],
  "children": [
    {
      "bounds": [300, 250],
      "contentsOpaque": true,
      "drawsContent": true,
      "paintInvalidations": [
        {
          "object": "LayoutView #document",
          "rect": [0, 0, 300, 250],
          "reason": "full"
        },
        {
          "object": "LayoutView #document",
          "rect": [0, 250, 300, 50],
          "reason": "incremental"
        },
        {
          "object": "LayoutBlockFlow HTML",
          "rect": [248, 0, 52, 250],
          "reason": "forced by layout"
        },
        {
          "object": "LayoutBlockFlow BODY",
          "rect": [256, 8, 36, 234],
          "reason": "forced by layout"
        },
        {
          "object": "LayoutText #text",
          "rect": [257, 8, 35, 197],
          "reason": "bounds change"
        },
        {
          "object": "LayoutBlockFlow HTML",
          "rect": [266, 0, 34, 300],
          "reason": "forced by layout"
        },
        {
          "object": "LayoutBlockFlow BODY",
          "rect": [274, 8, 18, 284],
          "reason": "forced by layout"
        },
        {
          "object": "LayoutText #text",
          "rect": [275, 8, 17, 248],
          "reason": "bounds change"
        },
        {
          "object": "InlineTextBox 'AAAA AAAA AAAA AAAA AAAA'",
          "reason": "full"
        },
        {
          "object": "InlineTextBox 'AAAA AAAA AAAA AAAA'",
          "reason": "bounds change"
        },
        {
          "object": "InlineTextBox 'AAAA'",
          "reason": "bounds change"
        },
        {
          "object": "RootInlineBox",
          "reason": "full"
        },
        {
          "object": "RootInlineBox",
          "reason": "full"
        }
      ]
    }
  ]
}
{
  "bounds": [250, 250],
  "children": [
    {
      "bounds": [250, 250],
      "contentsOpaque": true,
      "drawsContent": true,
      "paintInvalidations": [
        {
          "object": "LayoutView #document",
          "rect": [0, 0, 250, 250],
          "reason": "full"
        },
        {
          "object": "LayoutBlockFlow HTML",
          "rect": [248, 0, 52, 250],
          "reason": "forced by layout"
        },
        {
          "object": "LayoutBlockFlow HTML",
          "rect": [198, 0, 52, 250],
          "reason": "forced by layout"
        },
        {
          "object": "LayoutView #document",
          "rect": [250, 0, 50, 250],
          "reason": "incremental"
        },
        {
          "object": "LayoutBlockFlow BODY",
          "rect": [256, 8, 36, 234],
          "reason": "bounds change"
        },
        {
          "object": "LayoutBlockFlow BODY",
          "rect": [206, 8, 36, 234],
          "reason": "bounds change"
        },
        {
          "object": "LayoutText #text",
          "rect": [257, 8, 35, 197],
          "reason": "bounds change"
        },
        {
          "object": "LayoutText #text",
          "rect": [207, 8, 35, 197],
          "reason": "bounds change"
        },
        {
          "object": "InlineTextBox 'AAAA AAAA AAAA AAAA'",
          "reason": "bounds change"
        },
        {
          "object": "InlineTextBox 'AAAA'",
          "reason": "bounds change"
        },
        {
          "object": "RootInlineBox",
          "reason": "full"
        }
      ]
    }
  ]
}

