{
  "bounds": [800, 600],
  "children": [
    {
      "bounds": [800, 600],
      "contentsOpaque": true,
      "drawsContent": true,
      "paintInvalidations": [
        {
          "object": "LayoutBlockFlow DIV id='blue' class='flex-item'",
          "rect": [8, 68, 200, 30],
          "reason": "bounds change"
        },
        {
          "object": "LayoutBlockFlow DIV id='blue' class='flex-item'",
          "rect": [9, 69, 198, 30],
          "reason": "bounds change"
        }
      ]
    }
  ]
}

