{
  "bounds": [800, 600],
  "children": [
    {
      "bounds": [800, 600],
      "contentsOpaque": true,
      "drawsContent": true,
      "paintInvalidations": [
        {
          "object": "LayoutBlockFlow DIV id='inner-editor'",
          "rect": [406, 10, 4, 15],
          "reason": "invalidate paint rectangle"
        },
        {
          "object": "LayoutBlockFlow DIV id='inner-editor'",
          "rect": [404, 10, 4, 15],
          "reason": "invalidate paint rectangle"
        }
      ]
    }
  ]
}

