{
  "bounds": [800, 600],
  "children": [
    {
      "bounds": [800, 600],
      "contentsOpaque": true,
      "drawsContent": true,
      "paintInvalidations": [
        {
          "object": "LayoutBlockFlow DIV id='target'",
          "rect": [790, 7, 3, 20],
          "reason": "invalidate paint rectangle"
        }
      ]
    }
  ]
}

