{
  "bounds": [800, 600],
  "children": [
    {
      "bounds": [800, 600],
      "contentsOpaque": true,
      "drawsContent": true,
      "paintInvalidations": [
        {
          "object": "LayoutTextControl (positioned) INPUT id='input'",
          "rect": [8, 8, 244, 67],
          "reason": "style change"
        },
        {
          "object": "LayoutBlockFlow DIV id='inner-editor'",
          "rect": [30, 30, 200, 23],
          "reason": "invalidate paint rectangle"
        },
        {
          "object": "LayoutText #text",
          "rect": [30, 30, 44, 23],
          "reason": "full"
        },
        {
          "object": "InlineTextBox ''",
          "reason": "full"
        },
        {
          "object": "InlineTextBox 'NEW'",
          "reason": "full"
        },
        {
          "object": "RootInlineBox",
          "reason": "full"
        }
      ]
    }
  ]
}

