{
  "bounds": [800, 600],
  "children": [
    {
      "bounds": [800, 600],
      "contentsOpaque": true,
      "drawsContent": true,
      "paintInvalidations": [
        {
          "object": "LayoutBlockFlow DIV id='keep' class='item'",
          "rect": [348, 84, 100, 100],
          "reason": "bounds change"
        },
        {
          "object": "LayoutBlockFlow DIV id='to_remove' class='item'",
          "rect": [348, 84, 100, 100],
          "reason": "layoutObject removal"
        },
        {
          "object": "LayoutBlockFlow DIV id='keep' class='item'",
          "rect": [88, 84, 100, 100],
          "reason": "bounds change"
        },
        {
          "object": "LayoutText #text",
          "rect": [348, 84, 4, 18],
          "reason": "bounds change"
        },
        {
          "object": "LayoutText #text",
          "rect": [348, 84, 4, 18],
          "reason": "layoutObject removal"
        },
        {
          "object": "LayoutText #text",
          "rect": [88, 84, 4, 18],
          "reason": "bounds change"
        },
        {
          "object": "InlineTextBox '\u00A0'",
          "reason": "full"
        },
        {
          "object": "InlineTextBox '\u00A0'",
          "reason": "bounds change"
        },
        {
          "object": "LayoutBlockFlow (floating) DIV id='container'",
          "reason": "bounds change"
        },
        {
          "object": "LayoutBlockFlow (floating) DIV id='keep_outer' class='outer'",
          "reason": "bounds change"
        },
        {
          "object": "LayoutBlockFlow (floating) DIV id='node' class='outer'",
          "reason": "layoutObject removal"
        },
        {
          "object": "LayoutBlockFlow (positioned) DIV class='abs_pos'",
          "reason": "bounds change"
        },
        {
          "object": "LayoutBlockFlow (relative positioned) (floating) DIV id='keep_inner' class='inner'",
          "reason": "bounds change"
        },
        {
          "object": "LayoutBlockFlow (relative positioned) (floating) DIV id='to_remove_inner' class='inner'",
          "reason": "layoutObject removal"
        },
        {
          "object": "RootInlineBox",
          "reason": "full"
        },
        {
          "object": "RootInlineBox",
          "reason": "full"
        }
      ]
    }
  ]
}

