{
  "bounds": [800, 600],
  "children": [
    {
      "bounds": [800, 600],
      "contentsOpaque": true,
      "drawsContent": true,
      "paintInvalidations": [
        {
          "object": "LayoutBlockFlow DIV id='details-content'",
          "rect": [8, 68, 784, 19],
          "reason": "layoutObject insertion"
        },
        {
          "object": "LayoutTextControl INPUT",
          "rect": [8, 68, 131, 19],
          "reason": "layoutObject insertion"
        },
        {
          "object": "LayoutBlockFlow DIV id='inner-editor'",
          "rect": [11, 71, 125, 13],
          "reason": "layoutObject insertion"
        },
        {
          "object": "LayoutDetailsMarker DIV id='details-marker'",
          "rect": [8, 53, 11, 11],
          "reason": "full"
        },
        {
          "object": "HorizontalScrollbar",
          "reason": "scroll"
        },
        {
          "object": "LayoutBlockFlow DIV id='inner-editor'",
          "reason": "scroll"
        },
        {
          "object": "LayoutText #text",
          "reason": "layoutObject insertion"
        },
        {
          "object": "LayoutText #text",
          "reason": "layoutObject insertion"
        },
        {
          "object": "RootInlineBox",
          "reason": "full"
        },
        {
          "object": "VerticalScrollbar",
          "reason": "scroll"
        }
      ]
    }
  ]
}

