{
  "bounds": [800, 600],
  "children": [
    {
      "bounds": [800, 600],
      "contentsOpaque": true,
      "drawsContent": true,
      "paintInvalidations": [
        {
          "object": "LayoutBlockFlow (positioned) DIV",
          "rect": [96, 46, 308, 308],
          "reason": "outline"
        },
        {
          "object": "LayoutBlockFlow (positioned) DIV id='child'",
          "rect": [300, 50, 20, 300],
          "reason": "bounds change"
        },
        {
          "object": "LayoutBlockFlow (positioned) DIV id='child'",
          "rect": [150, 50, 20, 300],
          "reason": "bounds change"
        }
      ]
    }
  ]
}

