{
  "bounds": [800, 600],
  "children": [
    {
      "bounds": [800, 600],
      "contentsOpaque": true,
      "drawsContent": true,
      "paintInvalidations": [
        {
          "object": "LayoutInline SPAN id='outer'",
          "rect": [3, 83, 94, 30],
          "reason": "style change"
        },
        {
          "object": "LayoutBlockFlow (anonymous)",
          "reason": "forced by layout"
        },
        {
          "object": "LayoutBlockFlow (anonymous)",
          "reason": "forced by layout"
        },
        {
          "object": "LayoutInline SPAN id='outer'",
          "reason": "full"
        },
        {
          "object": "LayoutInline SPAN id='outer'",
          "reason": "style change"
        }
      ]
    }
  ]
}

