{
  "bounds": [800, 600],
  "children": [
    {
      "bounds": [800, 600],
      "contentsOpaque": true,
      "drawsContent": true,
      "paintInvalidations": [
        {
          "object": "LayoutBlockFlow (relative positioned) DIV id='target'",
          "rect": [8, 150, 784, 18],
          "reason": "invalidate paint rectangle"
        },
        {
          "object": "LayoutText #text",
          "rect": [8, 150, 37, 18],
          "reason": "full"
        },
        {
          "object": "InlineTextBox ''",
          "reason": "full"
        },
        {
          "object": "InlineTextBox 'PASS'",
          "reason": "full"
        },
        {
          "object": "RootInlineBox",
          "reason": "full"
        }
      ]
    }
  ]
}

