{
  "bounds": [800, 600],
  "children": [
    {
      "bounds": [800, 600],
      "contentsOpaque": true,
      "drawsContent": true,
      "paintInvalidations": [
        {
          "object": "LayoutBlockFlow DIV id='test'",
          "rect": [38, 75, 152, 108],
          "reason": "invalidate paint rectangle"
        },
        {
          "object": "LayoutBlockFlow DIV id='test'",
          "rect": [38, 93, 152, 91],
          "reason": "incremental"
        },
        {
          "object": "LayoutBlockFlow DIV id='test'",
          "rect": [38, 94, 152, 90],
          "reason": "incremental"
        },
        {
          "object": "LayoutText #text",
          "rect": [39, 75, 119, 108],
          "reason": "layoutObject removal"
        },
        {
          "object": "LayoutText #text",
          "rect": [112, 165, 42, 18],
          "reason": "bounds change"
        },
        {
          "object": "LayoutText #text",
          "rect": [74, 75, 39, 18],
          "reason": "bounds change"
        },
        {
          "object": "LayoutText #text",
          "rect": [39, 75, 36, 18],
          "reason": "selection"
        },
        {
          "object": "InlineTextBox '\n'",
          "reason": "full"
        },
        {
          "object": "InlineTextBox '\n'",
          "reason": "bounds change"
        },
        {
          "object": "InlineTextBox ' '",
          "reason": "full"
        },
        {
          "object": "InlineTextBox ' '",
          "reason": "full"
        },
        {
          "object": "InlineTextBox ' '",
          "reason": "full"
        },
        {
          "object": "InlineTextBox ' '",
          "reason": "full"
        },
        {
          "object": "InlineTextBox ' '",
          "reason": "full"
        },
        {
          "object": "InlineTextBox ' world'",
          "reason": "full"
        },
        {
          "object": "InlineTextBox 'hello '",
          "reason": "full"
        },
        {
          "object": "InlineTextBox 'hello '",
          "reason": "selection"
        },
        {
          "object": "InlineTextBox 'hello world hello'",
          "reason": "full"
        },
        {
          "object": "InlineTextBox 'hello world hello'",
          "reason": "full"
        },
        {
          "object": "InlineTextBox 'world hello world'",
          "reason": "full"
        },
        {
          "object": "InlineTextBox 'world hello world'",
          "reason": "full"
        },
        {
          "object": "InlineTextBox 'world hello'",
          "reason": "full"
        },
        {
          "object": "InlineTextBox 'world hello'",
          "reason": "full"
        },
        {
          "object": "InlineTextBox 'world'",
          "reason": "bounds change"
        },
        {
          "object": "InlineTextBox 'world'",
          "reason": "selection"
        },
        {
          "object": "LayoutBR BR",
          "reason": "bounds change"
        },
        {
          "object": "LayoutBlockFlow BODY",
          "reason": "selection"
        },
        {
          "object": "LayoutBlockFlow DIV id='test'",
          "reason": "selection"
        },
        {
          "object": "LayoutBlockFlow HTML",
          "reason": "selection"
        },
        {
          "object": "LayoutInline SPAN id='removeme'",
          "reason": "layoutObject removal"
        },
        {
          "object": "LayoutText #text",
          "reason": "selection"
        },
        {
          "object": "RootInlineBox",
          "reason": "full"
        },
        {
          "object": "RootInlineBox",
          "reason": "full"
        },
        {
          "object": "RootInlineBox",
          "reason": "full"
        },
        {
          "object": "RootInlineBox",
          "reason": "full"
        },
        {
          "object": "RootInlineBox",
          "reason": "full"
        },
        {
          "object": "RootInlineBox",
          "reason": "full"
        },
        {
          "object": "RootInlineBox",
          "reason": "full"
        }
      ]
    }
  ]
}

