{
  "bounds": [800, 600],
  "children": [
    {
      "bounds": [800, 600],
      "contentsOpaque": true,
      "drawsContent": true,
      "paintInvalidations": [
        {
          "object": "LayoutBlockFlow P id='target'",
          "rect": [8, 132, 784, 36],
          "reason": "invalidate paint rectangle"
        },
        {
          "object": "LayoutText #text",
          "rect": [8, 42, 775, 126],
          "reason": "full"
        },
        {
          "object": "InlineTextBox 'Curabitur a velit'",
          "reason": "full"
        },
        {
          "object": "InlineTextBox 'Curabitur a velit.'",
          "reason": "full"
        },
        {
          "object": "InlineTextBox 'Lorem ipsum dolor sit amet, consectetur adipiscing elit. Suspendisse placerat. Morbi tristique. Mauris eu lacus sed felis'",
          "reason": "full"
        },
        {
          "object": "InlineTextBox 'fermentum ut, tortor. Sed rhoncus. Quisque enim metus, luctus tincidunt, vestibulum eu, vestibulum eu, libero. Mauris'",
          "reason": "full"
        },
        {
          "object": "InlineTextBox 'feugiat molestie, mi lorem bibendum leo, ac gravida orci nunc nec nulla. Nunc nunc lorem, rhoncus et, rutrum ac,'",
          "reason": "full"
        },
        {
          "object": "InlineTextBox 'laoreet feugiat. Phasellus mollis pulvinar mi. Etiam ut neque sed eros egestas laoreet. Vestibulum ullamcorper, nulla non'",
          "reason": "full"
        },
        {
          "object": "InlineTextBox 'pellentesque cursus. Proin vitae nulla. Vivamus in ipsum. Etiam mi. Nam malesuada purus in sem. Sed eget elit vel erat'",
          "reason": "full"
        },
        {
          "object": "InlineTextBox 'sagittis aliquam nunc. Nullam pharetra molestie eros. Donec tempus purus ut ligula. Phasellus non nisl. Etiam eu mauris.'",
          "reason": "full"
        },
        {
          "object": "InlineTextBox 'sagittis aliquam nunc. Nullam pharetra molestie eros. Donec tempus purus ut ligula. Phasellus non nisl. Etiam eu mauris.'",
          "reason": "full"
        },
        {
          "object": "RootInlineBox",
          "reason": "full"
        },
        {
          "object": "RootInlineBox",
          "reason": "full"
        }
      ]
    }
  ]
}

