{
  "bounds": [800, 600],
  "children": [
    {
      "bounds": [800, 600],
      "contentsOpaque": true,
      "drawsContent": true,
      "paintInvalidations": [
        {
          "object": "LayoutBlockFlow HTML",
          "rect": [10, 102, 285, 400],
          "reason": "forced by layout"
        },
        {
          "object": "LayoutBlockFlow DIV",
          "rect": [18, 146, 269, 356],
          "reason": "bounds change"
        },
        {
          "object": "LayoutBlockFlow DIV id='to-be-changed'",
          "rect": [18, 128, 269, 36],
          "reason": "forced by layout"
        },
        {
          "object": "LayoutText #text",
          "rect": [18, 128, 256, 36],
          "reason": "layoutObject removal"
        },
        {
          "object": "LayoutText #text",
          "rect": [18, 128, 84, 18],
          "reason": "layoutObject insertion"
        },
        {
          "object": "LayoutView #document",
          "rect": [295, 102, 15, 400],
          "reason": "scroll"
        },
        {
          "object": "InlineTextBox 'After change'",
          "reason": "layoutObject insertion"
        },
        {
          "object": "InlineTextBox 'Find-in-page 'findme', then click here)'",
          "reason": "full"
        },
        {
          "object": "InlineTextBox 'To be changed: findme (Manual testing:'",
          "reason": "full"
        },
        {
          "object": "RootInlineBox",
          "reason": "full"
        },
        {
          "object": "RootInlineBox",
          "reason": "full"
        },
        {
          "object": "RootInlineBox",
          "reason": "full"
        },
        {
          "object": "VerticalScrollbar",
          "reason": "scroll"
        }
      ]
    }
  ]
}

