{
  "bounds": [800, 600],
  "children": [
    {
      "bounds": [800, 600],
      "contentsOpaque": true,
      "drawsContent": true,
      "paintInvalidations": [
        {
          "object": "LayoutText #text",
          "rect": [8, 18, 199, 18],
          "reason": "selection"
        },
        {
          "object": "InlineTextBox 'Should have green background'",
          "reason": "selection"
        }
      ]
    }
  ]
}

