{
  "bounds": [800, 600],
  "children": [
    {
      "bounds": [800, 600],
      "contentsOpaque": true,
      "drawsContent": true,
      "paintInvalidations": [
        {
          "object": "LayoutSVGContainer g",
          "rect": [50, 54, 571, 85],
          "reason": "bounds change"
        },
        {
          "object": "LayoutSVGInlineText #text",
          "rect": [50, 54, 571, 85],
          "reason": "layoutObject insertion"
        },
        {
          "object": "LayoutSVGInlineText #text",
          "rect": [50, 54, 571, 85],
          "reason": "layoutObject insertion"
        },
        {
          "object": "LayoutSVGInlineText #text",
          "rect": [50, 54, 571, 85],
          "reason": "layoutObject insertion"
        },
        {
          "object": "LayoutSVGRoot svg",
          "rect": [50, 54, 571, 85],
          "reason": "bounds change"
        },
        {
          "object": "LayoutSVGTSpan tspan",
          "rect": [50, 54, 571, 85],
          "reason": "layoutObject insertion"
        },
        {
          "object": "LayoutSVGTSpan tspan id='tspan'",
          "rect": [50, 54, 571, 85],
          "reason": "layoutObject insertion"
        },
        {
          "object": "LayoutSVGText text id='text'",
          "rect": [50, 54, 571, 85],
          "reason": "layoutObject insertion"
        },
        {
          "object": "InlineFlowBox",
          "reason": "layoutObject insertion"
        },
        {
          "object": "InlineFlowBox",
          "reason": "layoutObject insertion"
        },
        {
          "object": "InlineTextBox ' '",
          "reason": "layoutObject insertion"
        },
        {
          "object": "InlineTextBox 'Two lines of text should be visible.'",
          "reason": "layoutObject insertion"
        },
        {
          "object": "InlineTextBox 'Two lines of text should be visible.'",
          "reason": "layoutObject insertion"
        },
        {
          "object": "RootInlineBox",
          "reason": "full"
        }
      ]
    }
  ]
}

