{
  "bounds": [800, 600],
  "children": [
    {
      "bounds": [800, 600],
      "contentsOpaque": true,
      "drawsContent": true,
      "paintInvalidations": [
        {
          "object": "LayoutBlockFlow (relative positioned) DIV id='square'",
          "rect": [8, 8, 30, 30],
          "reason": "compositing update"
        }
      ]
    }
  ]
}

