{
  "bounds": [800, 600],
  "children": [
    {
      "bounds": [800, 600],
      "contentsOpaque": true,
      "drawsContent": true,
      "paintInvalidations": [
        {
          "object": "LayoutBlockFlow (positioned) DIV id='target1'",
          "rect": [100, 100, 190, 120],
          "reason": "border box change"
        },
        {
          "object": "LayoutBlockFlow (positioned) DIV id='target3'",
          "rect": [100, 300, 140, 170],
          "reason": "border box change"
        },
        {
          "object": "LayoutBlockFlow (positioned) DIV id='target4'",
          "rect": [300, 300, 140, 120],
          "reason": "border box change"
        },
        {
          "object": "LayoutBlockFlow (positioned) DIV id='target2'",
          "rect": [300, 100, 140, 120],
          "reason": "border box change"
        }
      ]
    }
  ]
}

