{
  "bounds": [800, 600],
  "children": [
    {
      "bounds": [800, 600],
      "contentsOpaque": true,
      "drawsContent": true,
      "paintInvalidations": [
        {
          "object": "LayoutButton INPUT",
          "rect": [3, 4, 64, 29],
          "reason": "subtree"
        },
        {
          "object": "LayoutBlockFlow (anonymous)",
          "rect": [16, 11, 38, 13],
          "reason": "subtree"
        },
        {
          "object": "LayoutText #text",
          "rect": [16, 11, 38, 13],
          "reason": "subtree"
        },
        {
          "object": "InlineTextBox 'Submit'",
          "reason": "subtree"
        },
        {
          "object": "RootInlineBox",
          "reason": "full"
        }
      ]
    }
  ]
}

