{
  "bounds": [800, 600],
  "children": [
    {
      "bounds": [800, 600],
      "contentsOpaque": true,
      "drawsContent": true,
      "paintInvalidations": [
        {
          "object": "LayoutBlockFlow div id='contentBox'",
          "rect": [8, 52, 602, 422],
          "reason": "forced by layout"
        },
        {
          "object": "InlineBox",
          "reason": "full"
        },
        {
          "object": "RootInlineBox",
          "reason": "full"
        },
        {
          "object": "RootInlineBox",
          "reason": "full"
        }
      ]
    }
  ]
}

