{
  "bounds": [800, 600],
  "children": [
    {
      "bounds": [800, 600],
      "contentsOpaque": true,
      "drawsContent": true,
      "paintInvalidations": [
        {
          "object": "LayoutTableCol COL id='col'",
          "rect": [8, 8, 113, 104],
          "reason": "style change"
        },
        {
          "object": "LayoutTableCell TD",
          "reason": "full"
        },
        {
          "object": "LayoutTableCell TD",
          "reason": "full"
        },
        {
          "object": "LayoutTableCell TD",
          "reason": "full"
        },
        {
          "object": "LayoutTableCell TD",
          "reason": "full"
        },
        {
          "object": "LayoutTableCell TD",
          "reason": "full"
        },
        {
          "object": "LayoutTableCell TD",
          "reason": "full"
        }
      ]
    }
  ]
}

