{
  "bounds": [800, 600],
  "children": [
    {
      "bounds": [800, 600],
      "contentsOpaque": true,
      "drawsContent": true,
      "paintInvalidations": [
        {
          "object": "LayoutTable TABLE",
          "rect": [8, 159, 111, 2],
          "reason": "incremental"
        },
        {
          "object": "LayoutTable TABLE",
          "rect": [8, 160, 111, 1],
          "reason": "incremental"
        },
        {
          "object": "LayoutTableSection TBODY id='tbody'",
          "rect": [10, 10, 107, 100],
          "reason": "style change"
        },
        {
          "object": "LayoutTableSection TBODY id='tbody'",
          "rect": [9, 9, 107, 100],
          "reason": "style change"
        },
        {
          "object": "LayoutTableRow TR",
          "rect": [10, 110, 107, 50],
          "reason": "bounds change"
        },
        {
          "object": "LayoutTableSection TBODY",
          "rect": [10, 110, 107, 50],
          "reason": "bounds change"
        },
        {
          "object": "LayoutTableRow TR",
          "rect": [10, 60, 107, 50],
          "reason": "bounds change"
        },
        {
          "object": "LayoutTableRow TR",
          "rect": [10, 10, 107, 50],
          "reason": "bounds change"
        },
        {
          "object": "LayoutTableRow TR",
          "rect": [9, 109, 107, 50],
          "reason": "bounds change"
        },
        {
          "object": "LayoutTableSection TBODY",
          "rect": [9, 109, 107, 50],
          "reason": "bounds change"
        },
        {
          "object": "LayoutTableRow TR",
          "rect": [9, 59, 107, 50],
          "reason": "bounds change"
        },
        {
          "object": "LayoutTableRow TR",
          "rect": [9, 9, 107, 50],
          "reason": "bounds change"
        },
        {
          "object": "LayoutTableCell TD",
          "rect": [62, 8, 57, 53],
          "reason": "location change"
        },
        {
          "object": "LayoutTableCell TD",
          "rect": [63, 108, 56, 53],
          "reason": "bounds change"
        },
        {
          "object": "LayoutTableCell TD",
          "rect": [8, 59, 56, 53],
          "reason": "bounds change"
        },
        {
          "object": "LayoutTableCell TD",
          "rect": [8, 8, 56, 53],
          "reason": "location change"
        },
        {
          "object": "LayoutTableCell TD",
          "rect": [63, 60, 56, 52],
          "reason": "bounds change"
        },
        {
          "object": "LayoutTableCell TD",
          "rect": [8, 58, 56, 52],
          "reason": "bounds change"
        },
        {
          "object": "LayoutTableCell TD",
          "rect": [8, 108, 55, 53],
          "reason": "bounds change"
        },
        {
          "object": "LayoutTableCell TD",
          "rect": [63, 59, 54, 51],
          "reason": "bounds change"
        },
        {
          "object": "LayoutTable TABLE",
          "rect": [115, 8, 4, 153],
          "reason": "incremental"
        },
        {
          "object": "LayoutTable TABLE",
          "rect": [117, 8, 2, 153],
          "reason": "incremental"
        },
        {
          "object": "LayoutTableCell TD",
          "reason": "full"
        },
        {
          "object": "LayoutTableCell TD",
          "reason": "full"
        },
        {
          "object": "LayoutTableCell TD",
          "reason": "full"
        },
        {
          "object": "LayoutTableCell TD",
          "reason": "full"
        },
        {
          "object": "LayoutTableCell TD",
          "reason": "full"
        },
        {
          "object": "LayoutTableCell TD",
          "reason": "full"
        },
        {
          "object": "LayoutTableCell TD",
          "reason": "full"
        },
        {
          "object": "LayoutTableCell TD",
          "reason": "full"
        },
        {
          "object": "LayoutTableCell TD",
          "reason": "full"
        },
        {
          "object": "LayoutTableCell TD",
          "reason": "full"
        }
      ]
    }
  ]
}

