{
  "bounds": [800, 600],
  "children": [
    {
      "bounds": [800, 600],
      "contentsOpaque": true,
      "drawsContent": true,
      "children": [
        {
          "position": [8, 57],
          "bounds": [200, 200],
          "shouldFlattenTransform": false,
          "drawsContent": true,
          "paintInvalidations": [
            {
              "object": "LayoutText #text",
              "rect": [0, 0, 47, 615],
              "reason": "style change"
            },
            {
              "object": "InlineTextBox '\n'",
              "reason": "style change"
            },
            {
              "object": "InlineTextBox '\n'",
              "reason": "style change"
            },
            {
              "object": "InlineTextBox '\n'",
              "reason": "style change"
            },
            {
              "object": "InlineTextBox '\n'",
              "reason": "style change"
            },
            {
              "object": "InlineTextBox '\n'",
              "reason": "style change"
            },
            {
              "object": "InlineTextBox '\n'",
              "reason": "style change"
            },
            {
              "object": "InlineTextBox '\n'",
              "reason": "style change"
            },
            {
              "object": "InlineTextBox '\n'",
              "reason": "style change"
            },
            {
              "object": "InlineTextBox '\n'",
              "reason": "style change"
            },
            {
              "object": "InlineTextBox '\n'",
              "reason": "style change"
            },
            {
              "object": "InlineTextBox '\n'",
              "reason": "style change"
            },
            {
              "object": "InlineTextBox '\n'",
              "reason": "style change"
            },
            {
              "object": "InlineTextBox '\n'",
              "reason": "style change"
            },
            {
              "object": "InlineTextBox '\n'",
              "reason": "style change"
            },
            {
              "object": "InlineTextBox '\n'",
              "reason": "style change"
            },
            {
              "object": "InlineTextBox '\n'",
              "reason": "style change"
            },
            {
              "object": "InlineTextBox '\n'",
              "reason": "style change"
            },
            {
              "object": "InlineTextBox '\n'",
              "reason": "style change"
            },
            {
              "object": "InlineTextBox '\n'",
              "reason": "style change"
            },
            {
              "object": "InlineTextBox '\n'",
              "reason": "style change"
            },
            {
              "object": "InlineTextBox '\n'",
              "reason": "style change"
            },
            {
              "object": "InlineTextBox '\n'",
              "reason": "style change"
            },
            {
              "object": "InlineTextBox '\n'",
              "reason": "style change"
            },
            {
              "object": "InlineTextBox '\n'",
              "reason": "style change"
            },
            {
              "object": "InlineTextBox '\n'",
              "reason": "style change"
            },
            {
              "object": "InlineTextBox '\n'",
              "reason": "style change"
            },
            {
              "object": "InlineTextBox '\n'",
              "reason": "style change"
            },
            {
              "object": "InlineTextBox '\n'",
              "reason": "style change"
            },
            {
              "object": "InlineTextBox '\n'",
              "reason": "style change"
            },
            {
              "object": "InlineTextBox '\n'",
              "reason": "style change"
            },
            {
              "object": "InlineTextBox '\n'",
              "reason": "style change"
            },
            {
              "object": "InlineTextBox '\n'",
              "reason": "style change"
            },
            {
              "object": "InlineTextBox '\n'",
              "reason": "style change"
            },
            {
              "object": "InlineTextBox '\n'",
              "reason": "style change"
            },
            {
              "object": "InlineTextBox '\n'",
              "reason": "style change"
            },
            {
              "object": "InlineTextBox '\n'",
              "reason": "style change"
            },
            {
              "object": "InlineTextBox '\n'",
              "reason": "style change"
            },
            {
              "object": "InlineTextBox '\n'",
              "reason": "style change"
            },
            {
              "object": "InlineTextBox '\n'",
              "reason": "style change"
            },
            {
              "object": "InlineTextBox '\n'",
              "reason": "style change"
            },
            {
              "object": "InlineTextBox '\n'",
              "reason": "style change"
            },
            {
              "object": "InlineTextBox '  Text'",
              "reason": "style change"
            },
            {
              "object": "InlineTextBox '  Text'",
              "reason": "style change"
            },
            {
              "object": "InlineTextBox '  Text'",
              "reason": "style change"
            },
            {
              "object": "InlineTextBox '  Text'",
              "reason": "style change"
            },
            {
              "object": "InlineTextBox '  Text'",
              "reason": "style change"
            },
            {
              "object": "InlineTextBox '  Text'",
              "reason": "style change"
            },
            {
              "object": "InlineTextBox '  Text'",
              "reason": "style change"
            },
            {
              "object": "InlineTextBox '  Text'",
              "reason": "style change"
            },
            {
              "object": "InlineTextBox '  Text'",
              "reason": "style change"
            },
            {
              "object": "InlineTextBox '  Text'",
              "reason": "style change"
            },
            {
              "object": "InlineTextBox '  Text'",
              "reason": "style change"
            },
            {
              "object": "InlineTextBox '  Text'",
              "reason": "style change"
            },
            {
              "object": "InlineTextBox '  Text'",
              "reason": "style change"
            },
            {
              "object": "InlineTextBox '  Text'",
              "reason": "style change"
            },
            {
              "object": "InlineTextBox '  Text'",
              "reason": "style change"
            },
            {
              "object": "InlineTextBox '  Text'",
              "reason": "style change"
            },
            {
              "object": "InlineTextBox '  Text'",
              "reason": "style change"
            },
            {
              "object": "InlineTextBox '  Text'",
              "reason": "style change"
            },
            {
              "object": "InlineTextBox '  Text'",
              "reason": "style change"
            },
            {
              "object": "InlineTextBox '  Text'",
              "reason": "style change"
            },
            {
              "object": "InlineTextBox '  Text'",
              "reason": "style change"
            },
            {
              "object": "InlineTextBox '  Text'",
              "reason": "style change"
            },
            {
              "object": "InlineTextBox '  Text'",
              "reason": "style change"
            },
            {
              "object": "InlineTextBox '  Text'",
              "reason": "style change"
            },
            {
              "object": "InlineTextBox '  Text'",
              "reason": "style change"
            },
            {
              "object": "InlineTextBox '  Text'",
              "reason": "style change"
            },
            {
              "object": "InlineTextBox '  Text'",
              "reason": "style change"
            },
            {
              "object": "InlineTextBox '  Text'",
              "reason": "style change"
            },
            {
              "object": "InlineTextBox '  Text'",
              "reason": "style change"
            },
            {
              "object": "InlineTextBox '  Text'",
              "reason": "style change"
            },
            {
              "object": "InlineTextBox '  Text'",
              "reason": "style change"
            },
            {
              "object": "InlineTextBox '  Text'",
              "reason": "style change"
            },
            {
              "object": "InlineTextBox '  Text'",
              "reason": "style change"
            },
            {
              "object": "InlineTextBox '  Text'",
              "reason": "style change"
            },
            {
              "object": "InlineTextBox '  Text'",
              "reason": "style change"
            },
            {
              "object": "InlineTextBox '  Text'",
              "reason": "style change"
            },
            {
              "object": "InlineTextBox '  Text'",
              "reason": "style change"
            },
            {
              "object": "InlineTextBox '  Text'",
              "reason": "style change"
            },
            {
              "object": "InlineTextBox '  Text'",
              "reason": "style change"
            },
            {
              "object": "InlineTextBox '  Text'",
              "reason": "style change"
            },
            {
              "object": "InlineTextBox '  Text'",
              "reason": "style change"
            }
          ],
          "children": [
            {
              "bounds": [185, 185],
              "shouldFlattenTransform": false,
              "children": [
                {
                  "bounds": [185, 615],
                  "drawsContent": true,
                  "paintInvalidations": [
                    {
                      "object": "LayoutText #text",
                      "rect": [0, 0, 47, 615],
                      "reason": "style change"
                    },
                    {
                      "object": "InlineTextBox '\n'",
                      "reason": "style change"
                    },
                    {
                      "object": "InlineTextBox '\n'",
                      "reason": "style change"
                    },
                    {
                      "object": "InlineTextBox '\n'",
                      "reason": "style change"
                    },
                    {
                      "object": "InlineTextBox '\n'",
                      "reason": "style change"
                    },
                    {
                      "object": "InlineTextBox '\n'",
                      "reason": "style change"
                    },
                    {
                      "object": "InlineTextBox '\n'",
                      "reason": "style change"
                    },
                    {
                      "object": "InlineTextBox '\n'",
                      "reason": "style change"
                    },
                    {
                      "object": "InlineTextBox '\n'",
                      "reason": "style change"
                    },
                    {
                      "object": "InlineTextBox '\n'",
                      "reason": "style change"
                    },
                    {
                      "object": "InlineTextBox '\n'",
                      "reason": "style change"
                    },
                    {
                      "object": "InlineTextBox '\n'",
                      "reason": "style change"
                    },
                    {
                      "object": "InlineTextBox '\n'",
                      "reason": "style change"
                    },
                    {
                      "object": "InlineTextBox '\n'",
                      "reason": "style change"
                    },
                    {
                      "object": "InlineTextBox '\n'",
                      "reason": "style change"
                    },
                    {
                      "object": "InlineTextBox '\n'",
                      "reason": "style change"
                    },
                    {
                      "object": "InlineTextBox '\n'",
                      "reason": "style change"
                    },
                    {
                      "object": "InlineTextBox '\n'",
                      "reason": "style change"
                    },
                    {
                      "object": "InlineTextBox '\n'",
                      "reason": "style change"
                    },
                    {
                      "object": "InlineTextBox '\n'",
                      "reason": "style change"
                    },
                    {
                      "object": "InlineTextBox '\n'",
                      "reason": "style change"
                    },
                    {
                      "object": "InlineTextBox '\n'",
                      "reason": "style change"
                    },
                    {
                      "object": "InlineTextBox '\n'",
                      "reason": "style change"
                    },
                    {
                      "object": "InlineTextBox '\n'",
                      "reason": "style change"
                    },
                    {
                      "object": "InlineTextBox '\n'",
                      "reason": "style change"
                    },
                    {
                      "object": "InlineTextBox '\n'",
                      "reason": "style change"
                    },
                    {
                      "object": "InlineTextBox '\n'",
                      "reason": "style change"
                    },
                    {
                      "object": "InlineTextBox '\n'",
                      "reason": "style change"
                    },
                    {
                      "object": "InlineTextBox '\n'",
                      "reason": "style change"
                    },
                    {
                      "object": "InlineTextBox '\n'",
                      "reason": "style change"
                    },
                    {
                      "object": "InlineTextBox '\n'",
                      "reason": "style change"
                    },
                    {
                      "object": "InlineTextBox '\n'",
                      "reason": "style change"
                    },
                    {
                      "object": "InlineTextBox '\n'",
                      "reason": "style change"
                    },
                    {
                      "object": "InlineTextBox '\n'",
                      "reason": "style change"
                    },
                    {
                      "object": "InlineTextBox '\n'",
                      "reason": "style change"
                    },
                    {
                      "object": "InlineTextBox '\n'",
                      "reason": "style change"
                    },
                    {
                      "object": "InlineTextBox '\n'",
                      "reason": "style change"
                    },
                    {
                      "object": "InlineTextBox '\n'",
                      "reason": "style change"
                    },
                    {
                      "object": "InlineTextBox '\n'",
                      "reason": "style change"
                    },
                    {
                      "object": "InlineTextBox '\n'",
                      "reason": "style change"
                    },
                    {
                      "object": "InlineTextBox '\n'",
                      "reason": "style change"
                    },
                    {
                      "object": "InlineTextBox '\n'",
                      "reason": "style change"
                    },
                    {
                      "object": "InlineTextBox '  Text'",
                      "reason": "style change"
                    },
                    {
                      "object": "InlineTextBox '  Text'",
                      "reason": "style change"
                    },
                    {
                      "object": "InlineTextBox '  Text'",
                      "reason": "style change"
                    },
                    {
                      "object": "InlineTextBox '  Text'",
                      "reason": "style change"
                    },
                    {
                      "object": "InlineTextBox '  Text'",
                      "reason": "style change"
                    },
                    {
                      "object": "InlineTextBox '  Text'",
                      "reason": "style change"
                    },
                    {
                      "object": "InlineTextBox '  Text'",
                      "reason": "style change"
                    },
                    {
                      "object": "InlineTextBox '  Text'",
                      "reason": "style change"
                    },
                    {
                      "object": "InlineTextBox '  Text'",
                      "reason": "style change"
                    },
                    {
                      "object": "InlineTextBox '  Text'",
                      "reason": "style change"
                    },
                    {
                      "object": "InlineTextBox '  Text'",
                      "reason": "style change"
                    },
                    {
                      "object": "InlineTextBox '  Text'",
                      "reason": "style change"
                    },
                    {
                      "object": "InlineTextBox '  Text'",
                      "reason": "style change"
                    },
                    {
                      "object": "InlineTextBox '  Text'",
                      "reason": "style change"
                    },
                    {
                      "object": "InlineTextBox '  Text'",
                      "reason": "style change"
                    },
                    {
                      "object": "InlineTextBox '  Text'",
                      "reason": "style change"
                    },
                    {
                      "object": "InlineTextBox '  Text'",
                      "reason": "style change"
                    },
                    {
                      "object": "InlineTextBox '  Text'",
                      "reason": "style change"
                    },
                    {
                      "object": "InlineTextBox '  Text'",
                      "reason": "style change"
                    },
                    {
                      "object": "InlineTextBox '  Text'",
                      "reason": "style change"
                    },
                    {
                      "object": "InlineTextBox '  Text'",
                      "reason": "style change"
                    },
                    {
                      "object": "InlineTextBox '  Text'",
                      "reason": "style change"
                    },
                    {
                      "object": "InlineTextBox '  Text'",
                      "reason": "style change"
                    },
                    {
                      "object": "InlineTextBox '  Text'",
                      "reason": "style change"
                    },
                    {
                      "object": "InlineTextBox '  Text'",
                      "reason": "style change"
                    },
                    {
                      "object": "InlineTextBox '  Text'",
                      "reason": "style change"
                    },
                    {
                      "object": "InlineTextBox '  Text'",
                      "reason": "style change"
                    },
                    {
                      "object": "InlineTextBox '  Text'",
                      "reason": "style change"
                    },
                    {
                      "object": "InlineTextBox '  Text'",
                      "reason": "style change"
                    },
                    {
                      "object": "InlineTextBox '  Text'",
                      "reason": "style change"
                    },
                    {
                      "object": "InlineTextBox '  Text'",
                      "reason": "style change"
                    },
                    {
                      "object": "InlineTextBox '  Text'",
                      "reason": "style change"
                    },
                    {
                      "object": "InlineTextBox '  Text'",
                      "reason": "style change"
                    },
                    {
                      "object": "InlineTextBox '  Text'",
                      "reason": "style change"
                    },
                    {
                      "object": "InlineTextBox '  Text'",
                      "reason": "style change"
                    },
                    {
                      "object": "InlineTextBox '  Text'",
                      "reason": "style change"
                    },
                    {
                      "object": "InlineTextBox '  Text'",
                      "reason": "style change"
                    },
                    {
                      "object": "InlineTextBox '  Text'",
                      "reason": "style change"
                    },
                    {
                      "object": "InlineTextBox '  Text'",
                      "reason": "style change"
                    },
                    {
                      "object": "InlineTextBox '  Text'",
                      "reason": "style change"
                    },
                    {
                      "object": "InlineTextBox '  Text'",
                      "reason": "style change"
                    }
                  ]
                }
              ]
            },
            {
              "bounds": [200, 200],
              "children": [
                {
                  "position": [0, 185],
                  "bounds": [185, 15]
                },
                {
                  "position": [185, 0],
                  "bounds": [15, 185]
                },
                {
                  "position": [185, 185],
                  "bounds": [15, 15],
                  "drawsContent": true
                }
              ]
            }
          ]
        }
      ]
    }
  ]
}

