{
  "bounds": [800, 600],
  "children": [
    {
      "bounds": [800, 600],
      "contentsOpaque": true,
      "drawsContent": true,
      "paintInvalidations": [
        {
          "object": "LayoutBlockFlow (positioned) DIV id='border-image'",
          "rect": [10, 10, 200, 200],
          "reason": "style change"
        }
      ]
    }
  ]
}

