{
  "bounds": [800, 600],
  "children": [
    {
      "bounds": [800, 600],
      "contentsOpaque": true,
      "drawsContent": true,
      "paintInvalidations": [
        {
          "object": "LayoutHTMLCanvas (positioned) CANVAS id='canvas'",
          "rect": [550, 50, 100, 500],
          "reason": "incremental"
        }
      ]
    }
  ]
}

