{
  "bounds": [800, 600],
  "children": [
    {
      "bounds": [800, 600],
      "contentsOpaque": true,
      "drawsContent": true,
      "paintInvalidations": [
        {
          "object": "LayoutBlockFlow (anonymous)",
          "rect": [11, 366, 778, 28],
          "reason": "bounds change"
        },
        {
          "object": "LayoutBlockFlow (anonymous)",
          "rect": [11, 360, 778, 28],
          "reason": "bounds change"
        },
        {
          "object": "LayoutBlockFlow DIV class='outer'",
          "rect": [61, 537, 62, 36],
          "reason": "bounds change"
        },
        {
          "object": "LayoutBlockFlow DIV class='outer'",
          "rect": [61, 531, 62, 36],
          "reason": "bounds change"
        },
        {
          "object": "LayoutBlockFlow DIV class='outer'",
          "rect": [61, 498, 62, 22],
          "reason": "bounds change"
        },
        {
          "object": "LayoutBlockFlow DIV class='outer'",
          "rect": [61, 492, 62, 22],
          "reason": "bounds change"
        },
        {
          "object": "LayoutBlockFlow DIV class='outer'",
          "rect": [61, 459, 62, 22],
          "reason": "bounds change"
        },
        {
          "object": "LayoutBlockFlow DIV class='outer'",
          "rect": [61, 453, 62, 22],
          "reason": "bounds change"
        },
        {
          "object": "LayoutBlockFlow DIV class='outer'",
          "rect": [61, 420, 62, 22],
          "reason": "bounds change"
        },
        {
          "object": "LayoutBlockFlow DIV class='outer'",
          "rect": [61, 414, 62, 22],
          "reason": "bounds change"
        },
        {
          "object": "LayoutDeprecatedFlexibleBox DIV class='outer box'",
          "rect": [61, 249, 62, 22],
          "reason": "bounds change"
        },
        {
          "object": "LayoutDeprecatedFlexibleBox DIV class='outer box'",
          "rect": [61, 243, 62, 22],
          "reason": "bounds change"
        },
        {
          "object": "LayoutDeprecatedFlexibleBox DIV class='outer box'",
          "rect": [61, 210, 62, 22],
          "reason": "bounds change"
        },
        {
          "object": "LayoutDeprecatedFlexibleBox DIV class='outer box'",
          "rect": [61, 204, 62, 22],
          "reason": "bounds change"
        },
        {
          "object": "LayoutBlockFlow DIV class='outer'",
          "rect": [61, 171, 62, 22],
          "reason": "bounds change"
        },
        {
          "object": "LayoutBlockFlow DIV class='outer'",
          "rect": [61, 165, 62, 22],
          "reason": "bounds change"
        },
        {
          "object": "LayoutBlockFlow DIV class='outer'",
          "rect": [61, 132, 62, 22],
          "reason": "bounds change"
        },
        {
          "object": "LayoutBlockFlow DIV class='outer'",
          "rect": [61, 126, 62, 22],
          "reason": "bounds change"
        },
        {
          "object": "LayoutBlockFlow DIV class='outer'",
          "rect": [61, 93, 62, 22],
          "reason": "bounds change"
        },
        {
          "object": "LayoutBlockFlow DIV class='outer'",
          "rect": [61, 87, 62, 22],
          "reason": "bounds change"
        },
        {
          "object": "LayoutBlockFlow DIV class='outer'",
          "rect": [61, 54, 62, 22],
          "reason": "bounds change"
        },
        {
          "object": "LayoutBlockFlow DIV class='outer'",
          "rect": [61, 48, 62, 22],
          "reason": "bounds change"
        },
        {
          "object": "LayoutBlockFlow DIV class='outer'",
          "rect": [61, 15, 62, 22],
          "reason": "bounds change"
        },
        {
          "object": "LayoutBlockFlow DIV class='outer'",
          "rect": [61, 9, 62, 22],
          "reason": "bounds change"
        },
        {
          "object": "LayoutTable TABLE class='outer'",
          "rect": [61, 366, 58, 28],
          "reason": "bounds change"
        },
        {
          "object": "LayoutTable TABLE class='outer'",
          "rect": [61, 360, 58, 28],
          "reason": "bounds change"
        },
        {
          "object": "LayoutTable TABLE class='outer'",
          "rect": [61, 327, 58, 28],
          "reason": "bounds change"
        },
        {
          "object": "LayoutTable TABLE class='outer'",
          "rect": [61, 321, 58, 28],
          "reason": "bounds change"
        },
        {
          "object": "LayoutTable TABLE class='outer'",
          "rect": [61, 288, 58, 28],
          "reason": "bounds change"
        },
        {
          "object": "LayoutTable TABLE class='outer'",
          "rect": [61, 282, 58, 28],
          "reason": "bounds change"
        },
        {
          "object": "LayoutBlockFlow DIV",
          "rect": [67, 504, 50, 10],
          "reason": "bounds change"
        },
        {
          "object": "LayoutBlockFlow DIV",
          "rect": [67, 498, 50, 10],
          "reason": "bounds change"
        },
        {
          "object": "LayoutBlockFlow DIV",
          "rect": [67, 465, 50, 10],
          "reason": "bounds change"
        },
        {
          "object": "LayoutBlockFlow DIV",
          "rect": [67, 459, 50, 10],
          "reason": "bounds change"
        },
        {
          "object": "LayoutBlockFlow DIV",
          "rect": [67, 426, 50, 10],
          "reason": "bounds change"
        },
        {
          "object": "LayoutBlockFlow DIV",
          "rect": [67, 420, 50, 10],
          "reason": "bounds change"
        },
        {
          "object": "LayoutBlockFlow DIV",
          "rect": [67, 216, 50, 10],
          "reason": "bounds change"
        },
        {
          "object": "LayoutBlockFlow DIV",
          "rect": [67, 210, 50, 10],
          "reason": "bounds change"
        },
        {
          "object": "LayoutBlockFlow DIV",
          "rect": [67, 177, 50, 10],
          "reason": "bounds change"
        },
        {
          "object": "LayoutBlockFlow DIV",
          "rect": [67, 171, 50, 10],
          "reason": "bounds change"
        },
        {
          "object": "LayoutBlockFlow DIV",
          "rect": [67, 138, 50, 10],
          "reason": "bounds change"
        },
        {
          "object": "LayoutBlockFlow DIV",
          "rect": [67, 132, 50, 10],
          "reason": "bounds change"
        },
        {
          "object": "LayoutBlockFlow DIV",
          "rect": [67, 99, 50, 10],
          "reason": "bounds change"
        },
        {
          "object": "LayoutBlockFlow DIV",
          "rect": [67, 93, 50, 10],
          "reason": "bounds change"
        },
        {
          "object": "LayoutBlockFlow DIV",
          "rect": [67, 60, 50, 10],
          "reason": "bounds change"
        },
        {
          "object": "LayoutBlockFlow DIV",
          "rect": [67, 54, 50, 10],
          "reason": "bounds change"
        },
        {
          "object": "LayoutBlockFlow DIV",
          "rect": [67, 21, 50, 10],
          "reason": "bounds change"
        },
        {
          "object": "LayoutBlockFlow DIV",
          "rect": [67, 15, 50, 10],
          "reason": "bounds change"
        },
        {
          "object": "LayoutTableSection TBODY",
          "rect": [67, 372, 46, 16],
          "reason": "bounds change"
        },
        {
          "object": "LayoutTableSection TBODY",
          "rect": [67, 366, 46, 16],
          "reason": "bounds change"
        },
        {
          "object": "LayoutTableSection TBODY",
          "rect": [67, 333, 46, 16],
          "reason": "bounds change"
        },
        {
          "object": "LayoutTableSection TBODY",
          "rect": [67, 327, 46, 16],
          "reason": "bounds change"
        },
        {
          "object": "LayoutTableSection TBODY",
          "rect": [67, 294, 46, 16],
          "reason": "bounds change"
        },
        {
          "object": "LayoutTableSection TBODY",
          "rect": [67, 288, 46, 16],
          "reason": "bounds change"
        },
        {
          "object": "LayoutTableRow TR",
          "rect": [67, 374, 46, 12],
          "reason": "bounds change"
        },
        {
          "object": "LayoutTableRow TR",
          "rect": [67, 368, 46, 12],
          "reason": "bounds change"
        },
        {
          "object": "LayoutTableRow TR",
          "rect": [67, 335, 46, 12],
          "reason": "bounds change"
        },
        {
          "object": "LayoutTableRow TR",
          "rect": [67, 329, 46, 12],
          "reason": "bounds change"
        },
        {
          "object": "LayoutTableRow TR",
          "rect": [67, 296, 46, 12],
          "reason": "bounds change"
        },
        {
          "object": "LayoutTableRow TR",
          "rect": [67, 290, 46, 12],
          "reason": "bounds change"
        },
        {
          "object": "LayoutTableCell TD",
          "rect": [69, 374, 42, 12],
          "reason": "bounds change"
        },
        {
          "object": "LayoutTableCell TD",
          "rect": [69, 368, 42, 12],
          "reason": "bounds change"
        },
        {
          "object": "LayoutTableCell TD",
          "rect": [69, 335, 42, 12],
          "reason": "bounds change"
        },
        {
          "object": "LayoutTableCell TD",
          "rect": [69, 329, 42, 12],
          "reason": "bounds change"
        },
        {
          "object": "LayoutTableCell TD",
          "rect": [69, 296, 42, 12],
          "reason": "bounds change"
        },
        {
          "object": "LayoutTableCell TD",
          "rect": [69, 290, 42, 12],
          "reason": "bounds change"
        },
        {
          "object": "LayoutBlockFlow (floating) DIV",
          "rect": [70, 375, 40, 10],
          "reason": "bounds change"
        },
        {
          "object": "LayoutBlockFlow (floating) DIV",
          "rect": [70, 369, 40, 10],
          "reason": "bounds change"
        },
        {
          "object": "LayoutBlockFlow (floating) DIV",
          "rect": [70, 336, 40, 10],
          "reason": "bounds change"
        },
        {
          "object": "LayoutBlockFlow (floating) DIV",
          "rect": [70, 330, 40, 10],
          "reason": "bounds change"
        },
        {
          "object": "LayoutBlockFlow (floating) DIV",
          "rect": [70, 297, 40, 10],
          "reason": "bounds change"
        },
        {
          "object": "LayoutBlockFlow (floating) DIV",
          "rect": [70, 291, 40, 10],
          "reason": "bounds change"
        },
        {
          "object": "LayoutBlockFlow (floating) DIV",
          "rect": [67, 138, 40, 10],
          "reason": "bounds change"
        },
        {
          "object": "LayoutBlockFlow (floating) DIV",
          "rect": [67, 132, 40, 10],
          "reason": "bounds change"
        },
        {
          "object": "LayoutBlockFlow (floating) DIV",
          "rect": [65, 60, 40, 10],
          "reason": "bounds change"
        },
        {
          "object": "LayoutBlockFlow (floating) DIV",
          "rect": [65, 54, 40, 10],
          "reason": "bounds change"
        },
        {
          "object": "LayoutBlockFlow (floating) DIV",
          "rect": [65, 21, 40, 10],
          "reason": "bounds change"
        },
        {
          "object": "LayoutBlockFlow (floating) DIV",
          "rect": [65, 15, 40, 10],
          "reason": "bounds change"
        },
        {
          "object": "LayoutBlockFlow (floating) DIV",
          "rect": [59, 543, 40, 10],
          "reason": "bounds change"
        },
        {
          "object": "LayoutBlockFlow (floating) DIV",
          "rect": [59, 537, 40, 10],
          "reason": "bounds change"
        },
        {
          "object": "LayoutBlockFlow (floating) DIV",
          "rect": [59, 504, 40, 10],
          "reason": "bounds change"
        },
        {
          "object": "LayoutBlockFlow (floating) DIV",
          "rect": [59, 498, 40, 10],
          "reason": "bounds change"
        },
        {
          "object": "LayoutBlockFlow (floating) DIV",
          "rect": [59, 465, 40, 10],
          "reason": "bounds change"
        },
        {
          "object": "LayoutBlockFlow (floating) DIV",
          "rect": [59, 459, 40, 10],
          "reason": "bounds change"
        },
        {
          "object": "LayoutBlockFlow (floating) DIV",
          "rect": [59, 426, 40, 10],
          "reason": "bounds change"
        },
        {
          "object": "LayoutBlockFlow (floating) DIV",
          "rect": [59, 420, 40, 10],
          "reason": "bounds change"
        },
        {
          "object": "LayoutBlockFlow (floating) DIV",
          "rect": [59, 255, 40, 10],
          "reason": "bounds change"
        },
        {
          "object": "LayoutBlockFlow (floating) DIV",
          "rect": [59, 249, 40, 10],
          "reason": "bounds change"
        },
        {
          "object": "LayoutBlockFlow (floating) DIV",
          "rect": [59, 216, 40, 10],
          "reason": "bounds change"
        },
        {
          "object": "LayoutBlockFlow (floating) DIV",
          "rect": [59, 210, 40, 10],
          "reason": "bounds change"
        },
        {
          "object": "LayoutBlockFlow (floating) DIV",
          "rect": [59, 177, 40, 10],
          "reason": "bounds change"
        },
        {
          "object": "LayoutBlockFlow (floating) DIV",
          "rect": [59, 171, 40, 10],
          "reason": "bounds change"
        },
        {
          "object": "LayoutBlockFlow (floating) DIV",
          "rect": [59, 99, 40, 10],
          "reason": "bounds change"
        },
        {
          "object": "LayoutBlockFlow (floating) DIV",
          "rect": [59, 93, 40, 10],
          "reason": "bounds change"
        },
        {
          "object": "LayoutBlockFlow DIV",
          "rect": [67, 543, 32, 20],
          "reason": "bounds change"
        },
        {
          "object": "LayoutBlockFlow DIV",
          "rect": [67, 537, 32, 20],
          "reason": "bounds change"
        },
        {
          "object": "LayoutBlockFlow DIV",
          "rect": [67, 255, 32, 10],
          "reason": "bounds change"
        },
        {
          "object": "LayoutBlockFlow DIV",
          "rect": [67, 249, 32, 10],
          "reason": "bounds change"
        },
        {
          "object": "LayoutInline SPAN",
          "rect": [66, 297, 16, 18],
          "reason": "bounds change"
        },
        {
          "object": "LayoutInline SPAN",
          "rect": [66, 291, 16, 18],
          "reason": "bounds change"
        },
        {
          "object": "LayoutInline SPAN",
          "rect": [63, 21, 16, 18],
          "reason": "bounds change"
        },
        {
          "object": "LayoutInline SPAN",
          "rect": [63, 15, 16, 18],
          "reason": "bounds change"
        },
        {
          "object": "LayoutInline SPAN",
          "rect": [59, 543, 16, 18],
          "reason": "bounds change"
        },
        {
          "object": "LayoutInline SPAN",
          "rect": [59, 537, 16, 18],
          "reason": "bounds change"
        },
        {
          "object": "LayoutInline SPAN",
          "rect": [59, 504, 16, 18],
          "reason": "bounds change"
        },
        {
          "object": "LayoutInline SPAN",
          "rect": [59, 498, 16, 18],
          "reason": "bounds change"
        },
        {
          "object": "LayoutInline SPAN",
          "rect": [59, 465, 16, 18],
          "reason": "bounds change"
        },
        {
          "object": "LayoutInline SPAN",
          "rect": [59, 459, 16, 18],
          "reason": "bounds change"
        },
        {
          "object": "LayoutInline SPAN",
          "rect": [59, 426, 16, 18],
          "reason": "bounds change"
        },
        {
          "object": "LayoutInline SPAN",
          "rect": [59, 420, 16, 18],
          "reason": "bounds change"
        },
        {
          "object": "LayoutInline SPAN",
          "rect": [59, 255, 16, 18],
          "reason": "bounds change"
        },
        {
          "object": "LayoutInline SPAN",
          "rect": [59, 249, 16, 18],
          "reason": "bounds change"
        },
        {
          "object": "LayoutInline SPAN",
          "rect": [59, 216, 16, 18],
          "reason": "bounds change"
        },
        {
          "object": "LayoutInline SPAN",
          "rect": [59, 210, 16, 18],
          "reason": "bounds change"
        },
        {
          "object": "LayoutInline SPAN",
          "rect": [59, 177, 16, 18],
          "reason": "bounds change"
        },
        {
          "object": "LayoutInline SPAN",
          "rect": [59, 171, 16, 18],
          "reason": "bounds change"
        },
        {
          "object": "LayoutInline SPAN",
          "rect": [59, 138, 16, 18],
          "reason": "bounds change"
        },
        {
          "object": "LayoutInline SPAN",
          "rect": [59, 132, 16, 18],
          "reason": "bounds change"
        },
        {
          "object": "LayoutInline SPAN",
          "rect": [58, 375, 16, 18],
          "reason": "bounds change"
        },
        {
          "object": "LayoutInline SPAN",
          "rect": [58, 369, 16, 18],
          "reason": "bounds change"
        },
        {
          "object": "LayoutInline SPAN",
          "rect": [58, 336, 16, 18],
          "reason": "bounds change"
        },
        {
          "object": "LayoutInline SPAN",
          "rect": [58, 330, 16, 18],
          "reason": "bounds change"
        },
        {
          "object": "LayoutInline SPAN",
          "rect": [57, 99, 16, 18],
          "reason": "bounds change"
        },
        {
          "object": "LayoutInline SPAN",
          "rect": [57, 93, 16, 18],
          "reason": "bounds change"
        },
        {
          "object": "LayoutInline SPAN",
          "rect": [57, 60, 16, 18],
          "reason": "bounds change"
        },
        {
          "object": "LayoutInline SPAN",
          "rect": [57, 54, 16, 18],
          "reason": "bounds change"
        },
        {
          "object": "LayoutText #text",
          "rect": [66, 298, 16, 17],
          "reason": "bounds change"
        },
        {
          "object": "LayoutText #text",
          "rect": [66, 292, 16, 17],
          "reason": "bounds change"
        },
        {
          "object": "LayoutText #text",
          "rect": [63, 22, 16, 17],
          "reason": "bounds change"
        },
        {
          "object": "LayoutText #text",
          "rect": [63, 16, 16, 17],
          "reason": "bounds change"
        },
        {
          "object": "LayoutText #text",
          "rect": [59, 544, 16, 17],
          "reason": "bounds change"
        },
        {
          "object": "LayoutText #text",
          "rect": [59, 538, 16, 17],
          "reason": "bounds change"
        },
        {
          "object": "LayoutText #text",
          "rect": [59, 505, 16, 17],
          "reason": "bounds change"
        },
        {
          "object": "LayoutText #text",
          "rect": [59, 499, 16, 17],
          "reason": "bounds change"
        },
        {
          "object": "LayoutText #text",
          "rect": [59, 466, 16, 17],
          "reason": "bounds change"
        },
        {
          "object": "LayoutText #text",
          "rect": [59, 460, 16, 17],
          "reason": "bounds change"
        },
        {
          "object": "LayoutText #text",
          "rect": [59, 427, 16, 17],
          "reason": "bounds change"
        },
        {
          "object": "LayoutText #text",
          "rect": [59, 421, 16, 17],
          "reason": "bounds change"
        },
        {
          "object": "LayoutText #text",
          "rect": [59, 256, 16, 17],
          "reason": "bounds change"
        },
        {
          "object": "LayoutText #text",
          "rect": [59, 250, 16, 17],
          "reason": "bounds change"
        },
        {
          "object": "LayoutText #text",
          "rect": [59, 217, 16, 17],
          "reason": "bounds change"
        },
        {
          "object": "LayoutText #text",
          "rect": [59, 211, 16, 17],
          "reason": "bounds change"
        },
        {
          "object": "LayoutText #text",
          "rect": [59, 178, 16, 17],
          "reason": "bounds change"
        },
        {
          "object": "LayoutText #text",
          "rect": [59, 172, 16, 17],
          "reason": "bounds change"
        },
        {
          "object": "LayoutText #text",
          "rect": [59, 139, 16, 17],
          "reason": "bounds change"
        },
        {
          "object": "LayoutText #text",
          "rect": [59, 133, 16, 17],
          "reason": "bounds change"
        },
        {
          "object": "LayoutText #text",
          "rect": [58, 376, 16, 17],
          "reason": "bounds change"
        },
        {
          "object": "LayoutText #text",
          "rect": [58, 370, 16, 17],
          "reason": "bounds change"
        },
        {
          "object": "LayoutText #text",
          "rect": [58, 337, 16, 17],
          "reason": "bounds change"
        },
        {
          "object": "LayoutText #text",
          "rect": [58, 331, 16, 17],
          "reason": "bounds change"
        },
        {
          "object": "LayoutText #text",
          "rect": [57, 100, 16, 17],
          "reason": "bounds change"
        },
        {
          "object": "LayoutText #text",
          "rect": [57, 94, 16, 17],
          "reason": "bounds change"
        },
        {
          "object": "LayoutText #text",
          "rect": [57, 61, 16, 17],
          "reason": "bounds change"
        },
        {
          "object": "LayoutText #text",
          "rect": [57, 55, 16, 17],
          "reason": "bounds change"
        },
        {
          "object": "InlineFlowBox",
          "reason": "bounds change"
        },
        {
          "object": "InlineFlowBox",
          "reason": "bounds change"
        },
        {
          "object": "InlineFlowBox",
          "reason": "bounds change"
        },
        {
          "object": "InlineFlowBox",
          "reason": "bounds change"
        },
        {
          "object": "InlineFlowBox",
          "reason": "bounds change"
        },
        {
          "object": "InlineFlowBox",
          "reason": "bounds change"
        },
        {
          "object": "InlineFlowBox",
          "reason": "bounds change"
        },
        {
          "object": "InlineFlowBox",
          "reason": "bounds change"
        },
        {
          "object": "InlineFlowBox",
          "reason": "bounds change"
        },
        {
          "object": "InlineFlowBox",
          "reason": "bounds change"
        },
        {
          "object": "InlineFlowBox",
          "reason": "bounds change"
        },
        {
          "object": "InlineFlowBox",
          "reason": "bounds change"
        },
        {
          "object": "InlineFlowBox",
          "reason": "bounds change"
        },
        {
          "object": "InlineFlowBox",
          "reason": "bounds change"
        },
        {
          "object": "InlineTextBox 'x'",
          "reason": "bounds change"
        },
        {
          "object": "InlineTextBox 'x'",
          "reason": "bounds change"
        },
        {
          "object": "InlineTextBox 'x'",
          "reason": "bounds change"
        },
        {
          "object": "InlineTextBox 'x'",
          "reason": "bounds change"
        },
        {
          "object": "InlineTextBox 'x'",
          "reason": "bounds change"
        },
        {
          "object": "InlineTextBox 'x'",
          "reason": "bounds change"
        },
        {
          "object": "InlineTextBox 'x'",
          "reason": "bounds change"
        },
        {
          "object": "InlineTextBox 'x'",
          "reason": "bounds change"
        },
        {
          "object": "InlineTextBox 'x'",
          "reason": "bounds change"
        },
        {
          "object": "InlineTextBox 'x'",
          "reason": "bounds change"
        },
        {
          "object": "InlineTextBox 'x'",
          "reason": "bounds change"
        },
        {
          "object": "InlineTextBox 'x'",
          "reason": "bounds change"
        },
        {
          "object": "InlineTextBox 'x'",
          "reason": "bounds change"
        },
        {
          "object": "InlineTextBox 'x'",
          "reason": "bounds change"
        },
        {
          "object": "LayoutBlockFlow DIV id='spacer1' class='spacer'",
          "reason": "became visible"
        },
        {
          "object": "LayoutBlockFlow DIV id='spacer10' class='spacer'",
          "reason": "became visible"
        },
        {
          "object": "LayoutBlockFlow DIV id='spacer11' class='spacer'",
          "reason": "became visible"
        },
        {
          "object": "LayoutBlockFlow DIV id='spacer12' class='spacer'",
          "reason": "became visible"
        },
        {
          "object": "LayoutBlockFlow DIV id='spacer13' class='spacer'",
          "reason": "became visible"
        },
        {
          "object": "LayoutBlockFlow DIV id='spacer14' class='spacer'",
          "reason": "became visible"
        },
        {
          "object": "LayoutBlockFlow DIV id='spacer2' class='spacer'",
          "reason": "became visible"
        },
        {
          "object": "LayoutBlockFlow DIV id='spacer3' class='spacer'",
          "reason": "became visible"
        },
        {
          "object": "LayoutBlockFlow DIV id='spacer4' class='spacer'",
          "reason": "became visible"
        },
        {
          "object": "LayoutBlockFlow DIV id='spacer5' class='spacer'",
          "reason": "became visible"
        },
        {
          "object": "LayoutBlockFlow DIV id='spacer6' class='spacer'",
          "reason": "became visible"
        },
        {
          "object": "LayoutBlockFlow DIV id='spacer7' class='spacer'",
          "reason": "became visible"
        },
        {
          "object": "LayoutBlockFlow DIV id='spacer8' class='spacer'",
          "reason": "became visible"
        },
        {
          "object": "LayoutBlockFlow DIV id='spacer9' class='spacer'",
          "reason": "became visible"
        },
        {
          "object": "LayoutText #text",
          "reason": "bounds change"
        },
        {
          "object": "LayoutText #text",
          "reason": "bounds change"
        },
        {
          "object": "LayoutText #text",
          "reason": "bounds change"
        },
        {
          "object": "LayoutText #text",
          "reason": "bounds change"
        },
        {
          "object": "LayoutText #text",
          "reason": "bounds change"
        },
        {
          "object": "LayoutText #text",
          "reason": "bounds change"
        },
        {
          "object": "LayoutText #text",
          "reason": "bounds change"
        },
        {
          "object": "LayoutText #text",
          "reason": "bounds change"
        },
        {
          "object": "LayoutText #text",
          "reason": "bounds change"
        },
        {
          "object": "LayoutText #text",
          "reason": "bounds change"
        },
        {
          "object": "LayoutText #text",
          "reason": "bounds change"
        },
        {
          "object": "LayoutText #text",
          "reason": "bounds change"
        },
        {
          "object": "LayoutText #text",
          "reason": "bounds change"
        },
        {
          "object": "LayoutText #text",
          "reason": "bounds change"
        },
        {
          "object": "LayoutText #text",
          "reason": "bounds change"
        },
        {
          "object": "LayoutText #text",
          "reason": "bounds change"
        },
        {
          "object": "RootInlineBox",
          "reason": "full"
        },
        {
          "object": "RootInlineBox",
          "reason": "full"
        },
        {
          "object": "RootInlineBox",
          "reason": "full"
        },
        {
          "object": "RootInlineBox",
          "reason": "full"
        },
        {
          "object": "RootInlineBox",
          "reason": "full"
        },
        {
          "object": "RootInlineBox",
          "reason": "full"
        },
        {
          "object": "RootInlineBox",
          "reason": "full"
        },
        {
          "object": "RootInlineBox",
          "reason": "full"
        },
        {
          "object": "RootInlineBox",
          "reason": "full"
        },
        {
          "object": "RootInlineBox",
          "reason": "full"
        },
        {
          "object": "RootInlineBox",
          "reason": "full"
        },
        {
          "object": "RootInlineBox",
          "reason": "full"
        },
        {
          "object": "RootInlineBox",
          "reason": "full"
        },
        {
          "object": "RootInlineBox",
          "reason": "full"
        },
        {
          "object": "RootInlineBox",
          "reason": "full"
        },
        {
          "object": "RootInlineBox",
          "reason": "full"
        }
      ]
    }
  ]
}

