{
  "bounds": [800, 600],
  "children": [
    {
      "bounds": [800, 600],
      "contentsOpaque": true,
      "drawsContent": true,
      "paintInvalidations": [
        {
          "object": "LayoutInline SPAN",
          "rect": [210, -5, 50, 20],
          "reason": "style change"
        },
        {
          "object": "LayoutText #text",
          "rect": [215, 0, 40, 10],
          "reason": "style change"
        },
        {
          "object": "InlineFlowBox",
          "reason": "style change"
        },
        {
          "object": "InlineTextBox 'Test'",
          "reason": "style change"
        }
      ]
    }
  ]
}

