{
  "bounds": [800, 600],
  "children": [
    {
      "bounds": [800, 600],
      "contentsOpaque": true,
      "drawsContent": true,
      "paintInvalidations": [
        {
          "object": "LayoutBlockFlow (positioned) DIV id='target'",
          "rect": [200, 300, 200, 200],
          "reason": "style change"
        }
      ]
    }
  ]
}

