{
  "bounds": [800, 600],
  "children": [
    {
      "bounds": [800, 600],
      "contentsOpaque": true,
      "drawsContent": true,
      "paintInvalidations": [
        {
          "object": "LayoutBlockFlow DIV class='item1'",
          "rect": [24, 52, 52, 152],
          "reason": "style change"
        },
        {
          "object": "LayoutBlockFlow DIV class='item1'",
          "rect": [0, 52, 52, 152],
          "reason": "style change"
        },
        {
          "object": "LayoutBlockFlow DIV class='item2'",
          "rect": [148, 52, 52, 150],
          "reason": "style change"
        },
        {
          "object": "LayoutBlockFlow DIV class='item2'",
          "rect": [124, 52, 52, 150],
          "reason": "style change"
        },
        {
          "object": "LayoutBlockFlow DIV",
          "rect": [25, 53, 50, 150],
          "reason": "bounds change"
        },
        {
          "object": "LayoutBlockFlow DIV",
          "rect": [1, 53, 50, 150],
          "reason": "bounds change"
        },
        {
          "object": "LayoutBlockFlow DIV",
          "rect": [149, 53, 50, 100],
          "reason": "bounds change"
        },
        {
          "object": "LayoutBlockFlow DIV",
          "rect": [125, 53, 50, 100],
          "reason": "bounds change"
        }
      ]
    }
  ]
}

