{
  "bounds": [800, 600],
  "children": [
    {
      "bounds": [800, 600],
      "contentsOpaque": true,
      "drawsContent": true,
      "paintInvalidations": [
        {
          "object": "LayoutBlockFlow DIV",
          "rect": [19, 189, 200, 60],
          "reason": "outline"
        },
        {
          "object": "LayoutBlockFlow DIV",
          "rect": [19, 29, 200, 60],
          "reason": "outline"
        },
        {
          "object": "LayoutBlockFlow DIV id='b'",
          "rect": [29, 229, 180, 20],
          "reason": "incremental"
        },
        {
          "object": "LayoutBlockFlow DIV id='a'",
          "rect": [29, 69, 180, 20],
          "reason": "incremental"
        }
      ]
    }
  ]
}

