{
  "bounds": [800, 600],
  "children": [
    {
      "bounds": [800, 600],
      "contentsOpaque": true,
      "drawsContent": true,
      "paintInvalidations": [
        {
          "object": "LayoutText #text",
          "rect": [379, 267, 288, 72],
          "reason": "style change"
        },
        {
          "object": "LayoutText #text",
          "rect": [69, 267, 288, 72],
          "reason": "style change"
        },
        {
          "object": "LayoutText #text",
          "rect": [304, 21, 128, 208],
          "reason": "style change"
        },
        {
          "object": "LayoutText #text",
          "rect": [304, 377, 128, 156],
          "reason": "style change"
        },
        {
          "object": "InlineTextBox 'The color of this'",
          "reason": "style change"
        },
        {
          "object": "InlineTextBox 'The color of this'",
          "reason": "style change"
        },
        {
          "object": "InlineTextBox 'The color of this'",
          "reason": "style change"
        },
        {
          "object": "InlineTextBox 'The color of this'",
          "reason": "style change"
        },
        {
          "object": "InlineTextBox 'green'",
          "reason": "style change"
        },
        {
          "object": "InlineTextBox 'green'",
          "reason": "style change"
        },
        {
          "object": "InlineTextBox 'green'",
          "reason": "style change"
        },
        {
          "object": "InlineTextBox 'green'",
          "reason": "style change"
        },
        {
          "object": "InlineTextBox 'reflection should be'",
          "reason": "style change"
        },
        {
          "object": "InlineTextBox 'reflection should be'",
          "reason": "style change"
        },
        {
          "object": "InlineTextBox 'reflection should be'",
          "reason": "style change"
        },
        {
          "object": "InlineTextBox 'reflection should be'",
          "reason": "style change"
        },
        {
          "object": "InlineTextBox 'text in the'",
          "reason": "style change"
        },
        {
          "object": "InlineTextBox 'text in the'",
          "reason": "style change"
        },
        {
          "object": "InlineTextBox 'text in the'",
          "reason": "style change"
        },
        {
          "object": "InlineTextBox 'text in the'",
          "reason": "style change"
        }
      ]
    }
  ]
}

