{
  "bounds": [800, 600],
  "children": [
    {
      "bounds": [800, 600],
      "contentsOpaque": true,
      "drawsContent": true,
      "paintInvalidations": [
        {
          "object": "LayoutBlockFlow DIV id='target'",
          "rect": [61, 44, 50, 25],
          "reason": "incremental"
        }
      ]
    }
  ]
}

