{
  "bounds": [785, 850],
  "children": [
    {
      "bounds": [785, 850],
      "contentsOpaque": true,
      "drawsContent": true,
      "paintInvalidations": [
        {
          "object": "LayoutBlockFlow HTML",
          "rect": [0, 0, 785, 1050],
          "reason": "forced by layout"
        },
        {
          "object": "LayoutView #document",
          "rect": [0, 850, 785, 200],
          "reason": "incremental"
        },
        {
          "object": "LayoutTableCell TD id='resizeMe'",
          "rect": [8, 117, 769, 205],
          "reason": "incremental"
        },
        {
          "object": "LayoutTableCell TD id='resizeMe'",
          "rect": [8, 122, 769, 200],
          "reason": "incremental"
        },
        {
          "object": "LayoutTableCell TD",
          "rect": [8, 982, 769, 60],
          "reason": "bounds change"
        },
        {
          "object": "LayoutTableRow TR",
          "rect": [8, 982, 769, 60],
          "reason": "bounds change"
        },
        {
          "object": "LayoutTableCell TD",
          "rect": [8, 922, 769, 60],
          "reason": "bounds change"
        },
        {
          "object": "LayoutTableRow TR",
          "rect": [8, 922, 769, 60],
          "reason": "bounds change"
        },
        {
          "object": "LayoutTableCell TD",
          "rect": [8, 862, 769, 60],
          "reason": "bounds change"
        },
        {
          "object": "LayoutTableRow TR",
          "rect": [8, 862, 769, 60],
          "reason": "bounds change"
        },
        {
          "object": "LayoutTableCell TD",
          "rect": [8, 802, 769, 60],
          "reason": "bounds change"
        },
        {
          "object": "LayoutTableRow TR",
          "rect": [8, 802, 769, 60],
          "reason": "bounds change"
        },
        {
          "object": "LayoutTableCell TD",
          "rect": [8, 782, 769, 60],
          "reason": "bounds change"
        },
        {
          "object": "LayoutTableRow TR",
          "rect": [8, 782, 769, 60],
          "reason": "bounds change"
        },
        {
          "object": "LayoutTableCell TD",
          "rect": [8, 742, 769, 60],
          "reason": "bounds change"
        },
        {
          "object": "LayoutTableRow TR",
          "rect": [8, 742, 769, 60],
          "reason": "bounds change"
        },
        {
          "object": "LayoutTableCell TD",
          "rect": [8, 722, 769, 60],
          "reason": "bounds change"
        },
        {
          "object": "LayoutTableRow TR",
          "rect": [8, 722, 769, 60],
          "reason": "bounds change"
        },
        {
          "object": "LayoutTableCell TD",
          "rect": [8, 682, 769, 60],
          "reason": "bounds change"
        },
        {
          "object": "LayoutTableRow TR",
          "rect": [8, 682, 769, 60],
          "reason": "bounds change"
        },
        {
          "object": "LayoutTableCell TD",
          "rect": [8, 662, 769, 60],
          "reason": "bounds change"
        },
        {
          "object": "LayoutTableRow TR",
          "rect": [8, 662, 769, 60],
          "reason": "bounds change"
        },
        {
          "object": "LayoutTableCell TD",
          "rect": [8, 622, 769, 60],
          "reason": "bounds change"
        },
        {
          "object": "LayoutTableRow TR",
          "rect": [8, 622, 769, 60],
          "reason": "bounds change"
        },
        {
          "object": "LayoutTableCell TD",
          "rect": [8, 602, 769, 60],
          "reason": "bounds change"
        },
        {
          "object": "LayoutTableRow TR",
          "rect": [8, 602, 769, 60],
          "reason": "bounds change"
        },
        {
          "object": "LayoutTableCell TD",
          "rect": [8, 562, 769, 60],
          "reason": "bounds change"
        },
        {
          "object": "LayoutTableRow TR",
          "rect": [8, 562, 769, 60],
          "reason": "bounds change"
        },
        {
          "object": "LayoutTableCell TD",
          "rect": [8, 542, 769, 60],
          "reason": "bounds change"
        },
        {
          "object": "LayoutTableRow TR",
          "rect": [8, 542, 769, 60],
          "reason": "bounds change"
        },
        {
          "object": "LayoutTableCell TD",
          "rect": [8, 502, 769, 60],
          "reason": "bounds change"
        },
        {
          "object": "LayoutTableRow TR",
          "rect": [8, 502, 769, 60],
          "reason": "bounds change"
        },
        {
          "object": "LayoutTableCell TD",
          "rect": [8, 482, 769, 60],
          "reason": "bounds change"
        },
        {
          "object": "LayoutTableRow TR",
          "rect": [8, 482, 769, 60],
          "reason": "bounds change"
        },
        {
          "object": "LayoutTableCell TD",
          "rect": [8, 442, 769, 60],
          "reason": "bounds change"
        },
        {
          "object": "LayoutTableRow TR",
          "rect": [8, 442, 769, 60],
          "reason": "bounds change"
        },
        {
          "object": "LayoutTableCell TD",
          "rect": [8, 422, 769, 60],
          "reason": "bounds change"
        },
        {
          "object": "LayoutTableRow TR",
          "rect": [8, 422, 769, 60],
          "reason": "bounds change"
        },
        {
          "object": "LayoutTableCell TD",
          "rect": [8, 382, 769, 60],
          "reason": "bounds change"
        },
        {
          "object": "LayoutTableRow TR",
          "rect": [8, 382, 769, 60],
          "reason": "bounds change"
        },
        {
          "object": "LayoutTableCell TD",
          "rect": [8, 362, 769, 60],
          "reason": "bounds change"
        },
        {
          "object": "LayoutTableRow TR",
          "rect": [8, 362, 769, 60],
          "reason": "bounds change"
        },
        {
          "object": "LayoutTableCell TD",
          "rect": [8, 322, 769, 60],
          "reason": "bounds change"
        },
        {
          "object": "LayoutTableRow TR",
          "rect": [8, 322, 769, 60],
          "reason": "bounds change"
        },
        {
          "object": "LayoutTableCell TD",
          "rect": [8, 302, 769, 60],
          "reason": "bounds change"
        },
        {
          "object": "LayoutTableRow TR",
          "rect": [8, 302, 769, 60],
          "reason": "bounds change"
        },
        {
          "object": "LayoutTableCell TD",
          "rect": [8, 242, 769, 60],
          "reason": "bounds change"
        },
        {
          "object": "LayoutTableRow TR",
          "rect": [8, 242, 769, 60],
          "reason": "bounds change"
        },
        {
          "object": "LayoutTableCell TD",
          "rect": [8, 182, 769, 60],
          "reason": "bounds change"
        },
        {
          "object": "LayoutTableRow TR",
          "rect": [8, 182, 769, 60],
          "reason": "bounds change"
        },
        {
          "object": "LayoutTableCell TD",
          "rect": [8, 122, 769, 60],
          "reason": "bounds change"
        },
        {
          "object": "LayoutTableRow TR",
          "rect": [8, 122, 769, 60],
          "reason": "bounds change"
        },
        {
          "object": "LayoutText #text",
          "rect": [13, 1002, 16, 19],
          "reason": "bounds change"
        },
        {
          "object": "LayoutText #text",
          "rect": [13, 942, 16, 19],
          "reason": "bounds change"
        },
        {
          "object": "LayoutText #text",
          "rect": [13, 882, 16, 19],
          "reason": "bounds change"
        },
        {
          "object": "LayoutText #text",
          "rect": [13, 822, 16, 19],
          "reason": "bounds change"
        },
        {
          "object": "LayoutText #text",
          "rect": [13, 802, 16, 19],
          "reason": "bounds change"
        },
        {
          "object": "LayoutText #text",
          "rect": [13, 742, 16, 19],
          "reason": "bounds change"
        },
        {
          "object": "LayoutText #text",
          "rect": [13, 682, 16, 19],
          "reason": "bounds change"
        },
        {
          "object": "LayoutText #text",
          "rect": [13, 622, 16, 19],
          "reason": "bounds change"
        },
        {
          "object": "LayoutText #text",
          "rect": [13, 762, 8, 19],
          "reason": "bounds change"
        },
        {
          "object": "LayoutText #text",
          "rect": [13, 702, 8, 19],
          "reason": "bounds change"
        },
        {
          "object": "LayoutText #text",
          "rect": [13, 642, 8, 19],
          "reason": "bounds change"
        },
        {
          "object": "LayoutText #text",
          "rect": [13, 582, 8, 19],
          "reason": "bounds change"
        },
        {
          "object": "LayoutText #text",
          "rect": [13, 562, 8, 19],
          "reason": "bounds change"
        },
        {
          "object": "LayoutText #text",
          "rect": [13, 522, 8, 19],
          "reason": "bounds change"
        },
        {
          "object": "LayoutText #text",
          "rect": [13, 502, 8, 19],
          "reason": "bounds change"
        },
        {
          "object": "LayoutText #text",
          "rect": [13, 462, 8, 19],
          "reason": "bounds change"
        },
        {
          "object": "LayoutText #text",
          "rect": [13, 442, 8, 19],
          "reason": "bounds change"
        },
        {
          "object": "LayoutText #text",
          "rect": [13, 402, 8, 19],
          "reason": "bounds change"
        },
        {
          "object": "LayoutText #text",
          "rect": [13, 382, 8, 19],
          "reason": "bounds change"
        },
        {
          "object": "LayoutText #text",
          "rect": [13, 342, 8, 19],
          "reason": "bounds change"
        },
        {
          "object": "LayoutText #text",
          "rect": [13, 322, 8, 19],
          "reason": "bounds change"
        },
        {
          "object": "LayoutText #text",
          "rect": [13, 262, 8, 19],
          "reason": "bounds change"
        },
        {
          "object": "LayoutText #text",
          "rect": [13, 202, 8, 19],
          "reason": "bounds change"
        },
        {
          "object": "LayoutText #text",
          "rect": [13, 142, 8, 19],
          "reason": "bounds change"
        },
        {
          "object": "InlineTextBox '10'",
          "reason": "bounds change"
        },
        {
          "object": "InlineTextBox '11'",
          "reason": "bounds change"
        },
        {
          "object": "InlineTextBox '12'",
          "reason": "bounds change"
        },
        {
          "object": "InlineTextBox '13'",
          "reason": "bounds change"
        },
        {
          "object": "InlineTextBox '2'",
          "reason": "bounds change"
        },
        {
          "object": "InlineTextBox '3'",
          "reason": "bounds change"
        },
        {
          "object": "InlineTextBox '4'",
          "reason": "bounds change"
        },
        {
          "object": "InlineTextBox '5'",
          "reason": "bounds change"
        },
        {
          "object": "InlineTextBox '6'",
          "reason": "bounds change"
        },
        {
          "object": "InlineTextBox '7'",
          "reason": "bounds change"
        },
        {
          "object": "InlineTextBox '8'",
          "reason": "bounds change"
        },
        {
          "object": "InlineTextBox '9'",
          "reason": "bounds change"
        },
        {
          "object": "RootInlineBox",
          "reason": "full"
        },
        {
          "object": "RootInlineBox",
          "reason": "full"
        },
        {
          "object": "RootInlineBox",
          "reason": "full"
        },
        {
          "object": "RootInlineBox",
          "reason": "full"
        },
        {
          "object": "RootInlineBox",
          "reason": "full"
        },
        {
          "object": "RootInlineBox",
          "reason": "full"
        },
        {
          "object": "RootInlineBox",
          "reason": "full"
        },
        {
          "object": "RootInlineBox",
          "reason": "full"
        },
        {
          "object": "RootInlineBox",
          "reason": "full"
        },
        {
          "object": "RootInlineBox",
          "reason": "full"
        },
        {
          "object": "RootInlineBox",
          "reason": "full"
        },
        {
          "object": "RootInlineBox",
          "reason": "full"
        }
      ]
    }
  ]
}

