{
  "bounds": [800, 600],
  "children": [
    {
      "bounds": [800, 600],
      "contentsOpaque": true,
      "drawsContent": true,
      "backgroundColor": "#FFFFFF",
      "paintInvalidations": [
        {
          "object": "LayoutSVGRoot svg",
          "rect": [187, 104, 310, 390],
          "reason": "bounds change"
        },
        {
          "object": "LayoutSVGRoot svg",
          "rect": [90, 83, 275, 248],
          "reason": "bounds change"
        },
        {
          "object": "LayoutSVGInlineText #text",
          "rect": [203, 334, 121, 44],
          "reason": "bounds change"
        },
        {
          "object": "LayoutSVGText text id='text'",
          "rect": [203, 334, 121, 44],
          "reason": "full"
        },
        {
          "object": "LayoutSVGInlineText #text",
          "rect": [246, 104, 119, 28],
          "reason": "bounds change"
        },
        {
          "object": "LayoutSVGText text id='text'",
          "rect": [246, 104, 119, 28],
          "reason": "full"
        },
        {
          "object": "LayoutSVGRect rect id='rect'",
          "rect": [355, 126, 103, 101],
          "reason": "full"
        },
        {
          "object": "LayoutSVGRect rect id='rect'",
          "rect": [111, 83, 101, 100],
          "reason": "full"
        },
        {
          "object": "LayoutSVGImage image id='image'",
          "rect": [352, 395, 98, 99],
          "reason": "full"
        },
        {
          "object": "LayoutSVGImage image id='image'",
          "rect": [90, 206, 98, 98],
          "reason": "full"
        },
        {
          "object": "InlineTextBox 'This is some text'",
          "reason": "full"
        },
        {
          "object": "InlineTextBox 'This is some text'",
          "reason": "bounds change"
        },
        {
          "object": "RootInlineBox",
          "reason": "full"
        },
        {
          "object": "RootInlineBox",
          "reason": "full"
        }
      ]
    }
  ]
}

