{
  "bounds": [800, 600],
  "children": [
    {
      "bounds": [800, 600],
      "contentsOpaque": true,
      "drawsContent": true,
      "paintInvalidations": [
        {
          "object": "LayoutSVGPath path",
          "rect": [98, 98, 120, 120],
          "reason": "full"
        }
      ]
    }
  ]
}

