{
  "bounds": [800, 600],
  "children": [
    {
      "bounds": [800, 600],
      "contentsOpaque": true,
      "drawsContent": true,
      "paintInvalidations": [
        {
          "object": "LayoutBlockFlow DIV",
          "rect": [8, 8, 100, 100],
          "reason": "background obscuration change"
        },
        {
          "object": "LayoutSVGRoot svg",
          "rect": [8, 8, 100, 100],
          "reason": "style change"
        },
        {
          "object": "RootInlineBox",
          "reason": "full"
        }
      ]
    }
  ]
}

