{
  "bounds": [800, 600],
  "children": [
    {
      "bounds": [800, 600],
      "contentsOpaque": true,
      "drawsContent": true,
      "paintInvalidations": [
        {
          "object": "LayoutSVGPath path id='path'",
          "rect": [8, 8, 100, 100],
          "reason": "full"
        }
      ]
    }
  ]
}

